%YAML 1.1
%TAG !u! tag:unity3d.com,2011:
--- !u!29 &1
OcclusionCullingSettings:
  m_ObjectHideFlags: 0
  serializedVersion: 2
  m_OcclusionBakeSettings:
    smallestOccluder: 5
    smallestHole: 0.25
    backfaceThreshold: 100
  m_SceneGUID: 00000000000000000000000000000000
  m_OcclusionCullingData: {fileID: 0}
--- !u!104 &2
RenderSettings:
  m_ObjectHideFlags: 0
  serializedVersion: 9
  m_Fog: 0
  m_FogColor: {r: 0.5, g: 0.5, b: 0.5, a: 1}
  m_FogMode: 3
  m_FogDensity: 0.01
  m_LinearFogStart: 0
  m_LinearFogEnd: 300
  m_AmbientSkyColor: {r: 0.212, g: 0.227, b: 0.259, a: 1}
  m_AmbientEquatorColor: {r: 0.114, g: 0.125, b: 0.133, a: 1}
  m_AmbientGroundColor: {r: 0.047, g: 0.043, b: 0.035, a: 1}
  m_AmbientIntensity: 1
  m_AmbientMode: 0
  m_SubtractiveShadowColor: {r: 0.42, g: 0.478, b: 0.627, a: 1}
  m_SkyboxMaterial: {fileID: 10304, guid: 0000000000000000f000000000000000, type: 0}
  m_HaloStrength: 0.5
  m_FlareStrength: 1
  m_FlareFadeSpeed: 3
  m_HaloTexture: {fileID: 0}
  m_SpotCookie: {fileID: 10001, guid: 0000000000000000e000000000000000, type: 0}
  m_DefaultReflectionMode: 0
  m_DefaultReflectionResolution: 128
  m_ReflectionBounces: 1
  m_ReflectionIntensity: 1
  m_CustomReflection: {fileID: 0}
  m_Sun: {fileID: 0}
  m_IndirectSpecularColor: {r: 0, g: 0, b: 0, a: 1}
  m_UseRadianceAmbientProbe: 0
--- !u!157 &3
LightmapSettings:
  m_ObjectHideFlags: 0
  serializedVersion: 12
  m_GIWorkflowMode: 0
  m_GISettings:
    serializedVersion: 2
    m_BounceScale: 1
    m_IndirectOutputScale: 1
    m_AlbedoBoost: 1
    m_EnvironmentLightingMode: 0
    m_EnableBakedLightmaps: 1
    m_EnableRealtimeLightmaps: 0
  m_LightmapEditorSettings:
    serializedVersion: 12
    m_Resolution: 2
    m_BakeResolution: 40
    m_AtlasSize: 1024
    m_AO: 0
    m_AOMaxDistance: 1
    m_CompAOExponent: 1
    m_CompAOExponentDirect: 0
    m_ExtractAmbientOcclusion: 0
    m_Padding: 2
    m_LightmapParameters: {fileID: 0}
    m_LightmapsBakeMode: 1
    m_TextureCompression: 1
    m_FinalGather: 0
    m_FinalGatherFiltering: 1
    m_FinalGatherRayCount: 256
    m_ReflectionCompression: 2
    m_MixedBakeMode: 2
    m_BakeBackend: 1
    m_PVRSampling: 1
    m_PVRDirectSampleCount: 32
    m_PVRSampleCount: 512
    m_PVRBounces: 2
    m_PVREnvironmentSampleCount: 256
    m_PVREnvironmentReferencePointCount: 2048
    m_PVRFilteringMode: 1
    m_PVRDenoiserTypeDirect: 1
    m_PVRDenoiserTypeIndirect: 1
    m_PVRDenoiserTypeAO: 1
    m_PVRFilterTypeDirect: 0
    m_PVRFilterTypeIndirect: 0
    m_PVRFilterTypeAO: 0
    m_PVREnvironmentMIS: 1
    m_PVRCulling: 1
    m_PVRFilteringGaussRadiusDirect: 1
    m_PVRFilteringGaussRadiusIndirect: 5
    m_PVRFilteringGaussRadiusAO: 2
    m_PVRFilteringAtrousPositionSigmaDirect: 0.5
    m_PVRFilteringAtrousPositionSigmaIndirect: 2
    m_PVRFilteringAtrousPositionSigmaAO: 1
    m_ExportTrainingData: 0
    m_TrainingDataDestination: TrainingData
    m_LightProbeSampleCountMultiplier: 4
  m_LightingDataAsset: {fileID: 0}
  m_LightingSettings: {fileID: 4890085278179872738, guid: 1b982a1d32511494ca10dd66736d5ed9, type: 2}
--- !u!196 &4
NavMeshSettings:
  serializedVersion: 2
  m_ObjectHideFlags: 0
  m_BuildSettings:
    serializedVersion: 3
    agentTypeID: 0
    agentRadius: 0.5
    agentHeight: 2
    agentSlope: 45
    agentClimb: 0.4
    ledgeDropHeight: 0
    maxJumpAcrossDistance: 0
    minRegionArea: 2
    manualCellSize: 0
    cellSize: 0.16666667
    manualTileSize: 0
    tileSize: 256
    buildHeightMesh: 0
    maxJobWorkers: 0
    preserveTilesOutsideBounds: 0
    debug:
      m_Flags: 0
  m_NavMeshData: {fileID: 0}
--- !u!1001 &175885769
PrefabInstance:
  m_ObjectHideFlags: 0
  serializedVersion: 2
  m_Modification:
    serializedVersion: 3
    m_TransformParent: {fileID: 0}
    m_Modifications:
    - target: {fileID: 3512526509595786538, guid: 88eb4cec0c7324e51bf5e7e1342370e3, type: 3}
      propertyPath: m_Name
      value: WrapPeg (3)
      objectReference: {fileID: 0}
    - target: {fileID: 3512526509595786583, guid: 88eb4cec0c7324e51bf5e7e1342370e3, type: 3}
      propertyPath: m_RootOrder
      value: 6
      objectReference: {fileID: 0}
    - target: {fileID: 3512526509595786583, guid: 88eb4cec0c7324e51bf5e7e1342370e3, type: 3}
      propertyPath: m_LocalPosition.x
      value: -3.0999997
      objectReference: {fileID: 0}
    - target: {fileID: 3512526509595786583, guid: 88eb4cec0c7324e51bf5e7e1342370e3, type: 3}
      propertyPath: m_LocalPosition.y
      value: 10.62
      objectReference: {fileID: 0}
    - target: {fileID: 3512526509595786583, guid: 88eb4cec0c7324e51bf5e7e1342370e3, type: 3}
      propertyPath: m_LocalPosition.z
      value: -0.5
      objectReference: {fileID: 0}
    - target: {fileID: 3512526509595786583, guid: 88eb4cec0c7324e51bf5e7e1342370e3, type: 3}
      propertyPath: m_LocalRotation.w
      value: 0.7071068
      objectReference: {fileID: 0}
    - target: {fileID: 3512526509595786583, guid: 88eb4cec0c7324e51bf5e7e1342370e3, type: 3}
      propertyPath: m_LocalRotation.x
      value: 0.7071068
      objectReference: {fileID: 0}
    - target: {fileID: 3512526509595786583, guid: 88eb4cec0c7324e51bf5e7e1342370e3, type: 3}
      propertyPath: m_LocalRotation.y
      value: 0
      objectReference: {fileID: 0}
    - target: {fileID: 3512526509595786583, guid: 88eb4cec0c7324e51bf5e7e1342370e3, type: 3}
      propertyPath: m_LocalRotation.z
      value: 0
      objectReference: {fileID: 0}
    - target: {fileID: 3512526509595786583, guid: 88eb4cec0c7324e51bf5e7e1342370e3, type: 3}
      propertyPath: m_LocalEulerAnglesHint.x
      value: 90
      objectReference: {fileID: 0}
    - target: {fileID: 3512526509595786583, guid: 88eb4cec0c7324e51bf5e7e1342370e3, type: 3}
      propertyPath: m_LocalEulerAnglesHint.y
      value: 0
      objectReference: {fileID: 0}
    - target: {fileID: 3512526509595786583, guid: 88eb4cec0c7324e51bf5e7e1342370e3, type: 3}
      propertyPath: m_LocalEulerAnglesHint.z
      value: 0
      objectReference: {fileID: 0}
    m_RemovedComponents: []
    m_RemovedGameObjects: []
    m_AddedGameObjects: []
    m_AddedComponents: []
  m_SourcePrefab: {fileID: 100100000, guid: 88eb4cec0c7324e51bf5e7e1342370e3, type: 3}
--- !u!114 &175885770 stripped
MonoBehaviour:
  m_CorrespondingSourceObject: {fileID: 3433872735350211203, guid: 88eb4cec0c7324e51bf5e7e1342370e3, type: 3}
  m_PrefabInstance: {fileID: 175885769}
  m_PrefabAsset: {fileID: 0}
  m_GameObject: {fileID: 0}
  m_Enabled: 1
  m_EditorHideFlags: 0
  m_Script: {fileID: 11500000, guid: 39f0f8f454a2049f3af7bad3dda0481e, type: 3}
  m_Name: 
  m_EditorClassIdentifier: 
--- !u!1 &178620544
GameObject:
  m_ObjectHideFlags: 0
  m_CorrespondingSourceObject: {fileID: 0}
  m_PrefabInstance: {fileID: 0}
  m_PrefabAsset: {fileID: 0}
  serializedVersion: 6
  m_Component:
  - component: {fileID: 178620545}
  - component: {fileID: 178620547}
  - component: {fileID: 178620546}
  m_Layer: 5
  m_Name: Instructions
  m_TagString: Untagged
  m_Icon: {fileID: 0}
  m_NavMeshLayer: 0
  m_StaticEditorFlags: 0
  m_IsActive: 1
--- !u!224 &178620545
RectTransform:
  m_ObjectHideFlags: 0
  m_CorrespondingSourceObject: {fileID: 0}
  m_PrefabInstance: {fileID: 0}
  m_PrefabAsset: {fileID: 0}
  m_GameObject: {fileID: 178620544}
  m_LocalRotation: {x: 0, y: 0, z: 0, w: 1}
  m_LocalPosition: {x: 0, y: 0, z: 0}
  m_LocalScale: {x: 1, y: 1, z: 1}
  m_ConstrainProportionsScale: 0
  m_Children: []
  m_Father: {fileID: 876719296}
  m_LocalEulerAnglesHint: {x: 0, y: 0, z: 0}
  m_AnchorMin: {x: 0, y: 0}
  m_AnchorMax: {x: 0, y: 0}
  m_AnchoredPosition: {x: 142.57, y: 54.39}
  m_SizeDelta: {x: 239.1437, y: 72.29023}
  m_Pivot: {x: 0.5, y: 0.5}
--- !u!114 &178620546
MonoBehaviour:
  m_ObjectHideFlags: 0
  m_CorrespondingSourceObject: {fileID: 0}
  m_PrefabInstance: {fileID: 0}
  m_PrefabAsset: {fileID: 0}
  m_GameObject: {fileID: 178620544}
  m_Enabled: 1
  m_EditorHideFlags: 0
  m_Script: {fileID: 11500000, guid: 5f7201a12d95ffc409449d95f23cf332, type: 3}
  m_Name: 
  m_EditorClassIdentifier: 
  m_Material: {fileID: 0}
  m_Color: {r: 1, g: 1, b: 1, a: 1}
  m_RaycastTarget: 1
  m_RaycastPadding: {x: 0, y: 0, z: 0, w: 0}
  m_Maskable: 1
  m_OnCullStateChanged:
    m_PersistentCalls:
      m_Calls: []
  m_FontData:
    m_Font: {fileID: 10102, guid: 0000000000000000e000000000000000, type: 0}
    m_FontSize: 18
    m_FontStyle: 1
    m_BestFit: 0
    m_MinSize: 1
    m_MaxSize: 20
    m_Alignment: 3
    m_AlignByGeometry: 0
    m_RichText: 1
    m_HorizontalOverflow: 1
    m_VerticalOverflow: 0
    m_LineSpacing: 1
  m_Text: 'Use WASD to move around.

    All pegs must be in contact with the rope!'
--- !u!222 &178620547
CanvasRenderer:
  m_ObjectHideFlags: 0
  m_CorrespondingSourceObject: {fileID: 0}
  m_PrefabInstance: {fileID: 0}
  m_PrefabAsset: {fileID: 0}
  m_GameObject: {fileID: 178620544}
  m_CullTransparentMesh: 0
--- !u!1 &266503051
GameObject:
  m_ObjectHideFlags: 0
  m_CorrespondingSourceObject: {fileID: 0}
  m_PrefabInstance: {fileID: 0}
  m_PrefabAsset: {fileID: 0}
  serializedVersion: 6
  m_Component:
  - component: {fileID: 266503052}
  - component: {fileID: 266503054}
  - component: {fileID: 266503053}
  - component: {fileID: 266503055}
  m_Layer: 5
  m_Name: Finish
  m_TagString: Untagged
  m_Icon: {fileID: 0}
  m_NavMeshLayer: 0
  m_StaticEditorFlags: 0
  m_IsActive: 1
--- !u!224 &266503052
RectTransform:
  m_ObjectHideFlags: 0
  m_CorrespondingSourceObject: {fileID: 0}
  m_PrefabInstance: {fileID: 0}
  m_PrefabAsset: {fileID: 0}
  m_GameObject: {fileID: 266503051}
  m_LocalRotation: {x: -0, y: -0, z: -0, w: 1}
  m_LocalPosition: {x: 0, y: 0, z: 0}
  m_LocalScale: {x: 1, y: 1, z: 1}
  m_ConstrainProportionsScale: 0
  m_Children: []
  m_Father: {fileID: 1406884019}
  m_LocalEulerAnglesHint: {x: 0, y: 0, z: 0}
  m_AnchorMin: {x: 0.5, y: 0.5}
  m_AnchorMax: {x: 0.5, y: 0.5}
  m_AnchoredPosition: {x: 0, y: 0}
  m_SizeDelta: {x: 239.14368, y: 72.29022}
  m_Pivot: {x: 0.5, y: 0.5}
--- !u!114 &266503053
MonoBehaviour:
  m_ObjectHideFlags: 0
  m_CorrespondingSourceObject: {fileID: 0}
  m_PrefabInstance: {fileID: 0}
  m_PrefabAsset: {fileID: 0}
  m_GameObject: {fileID: 266503051}
  m_Enabled: 1
  m_EditorHideFlags: 0
  m_Script: {fileID: 11500000, guid: 5f7201a12d95ffc409449d95f23cf332, type: 3}
  m_Name: 
  m_EditorClassIdentifier: 
  m_Material: {fileID: 0}
  m_Color: {r: 0, g: 0.6415094, b: 0.035014484, a: 1}
  m_RaycastTarget: 1
  m_RaycastPadding: {x: 0, y: 0, z: 0, w: 0}
  m_Maskable: 1
  m_OnCullStateChanged:
    m_PersistentCalls:
      m_Calls: []
  m_FontData:
    m_Font: {fileID: 10102, guid: 0000000000000000e000000000000000, type: 0}
    m_FontSize: 50
    m_FontStyle: 1
    m_BestFit: 0
    m_MinSize: 0
    m_MaxSize: 50
    m_Alignment: 4
    m_AlignByGeometry: 0
    m_RichText: 1
    m_HorizontalOverflow: 1
    m_VerticalOverflow: 0
    m_LineSpacing: 1
  m_Text: DONE!
--- !u!222 &266503054
CanvasRenderer:
  m_ObjectHideFlags: 0
  m_CorrespondingSourceObject: {fileID: 0}
  m_PrefabInstance: {fileID: 0}
  m_PrefabAsset: {fileID: 0}
  m_GameObject: {fileID: 266503051}
  m_CullTransparentMesh: 0
--- !u!114 &266503055
MonoBehaviour:
  m_ObjectHideFlags: 0
  m_CorrespondingSourceObject: {fileID: 0}
  m_PrefabInstance: {fileID: 0}
  m_PrefabAsset: {fileID: 0}
  m_GameObject: {fileID: 266503051}
  m_Enabled: 1
  m_EditorHideFlags: 0
  m_Script: {fileID: 11500000, guid: cfabb0440166ab443bba8876756fdfa9, type: 3}
  m_Name: 
  m_EditorClassIdentifier: 
  m_EffectColor: {r: 0, g: 0, b: 0, a: 0.5}
  m_EffectDistance: {x: 2, y: -2}
  m_UseGraphicAlpha: 1
--- !u!1001 &334666148
PrefabInstance:
  m_ObjectHideFlags: 0
  serializedVersion: 2
  m_Modification:
    serializedVersion: 3
    m_TransformParent: {fileID: 0}
    m_Modifications:
    - target: {fileID: 3512526509595786538, guid: 88eb4cec0c7324e51bf5e7e1342370e3, type: 3}
      propertyPath: m_Name
      value: WrapPeg (5)
      objectReference: {fileID: 0}
    - target: {fileID: 3512526509595786583, guid: 88eb4cec0c7324e51bf5e7e1342370e3, type: 3}
      propertyPath: m_RootOrder
      value: 8
      objectReference: {fileID: 0}
    - target: {fileID: 3512526509595786583, guid: 88eb4cec0c7324e51bf5e7e1342370e3, type: 3}
      propertyPath: m_LocalPosition.x
      value: -6.24
      objectReference: {fileID: 0}
    - target: {fileID: 3512526509595786583, guid: 88eb4cec0c7324e51bf5e7e1342370e3, type: 3}
      propertyPath: m_LocalPosition.y
      value: 7
      objectReference: {fileID: 0}
    - target: {fileID: 3512526509595786583, guid: 88eb4cec0c7324e51bf5e7e1342370e3, type: 3}
      propertyPath: m_LocalPosition.z
      value: -0.5
      objectReference: {fileID: 0}
    - target: {fileID: 3512526509595786583, guid: 88eb4cec0c7324e51bf5e7e1342370e3, type: 3}
      propertyPath: m_LocalRotation.w
      value: 0.7071068
      objectReference: {fileID: 0}
    - target: {fileID: 3512526509595786583, guid: 88eb4cec0c7324e51bf5e7e1342370e3, type: 3}
      propertyPath: m_LocalRotation.x
      value: 0.7071068
      objectReference: {fileID: 0}
    - target: {fileID: 3512526509595786583, guid: 88eb4cec0c7324e51bf5e7e1342370e3, type: 3}
      propertyPath: m_LocalRotation.y
      value: 0
      objectReference: {fileID: 0}
    - target: {fileID: 3512526509595786583, guid: 88eb4cec0c7324e51bf5e7e1342370e3, type: 3}
      propertyPath: m_LocalRotation.z
      value: 0
      objectReference: {fileID: 0}
    - target: {fileID: 3512526509595786583, guid: 88eb4cec0c7324e51bf5e7e1342370e3, type: 3}
      propertyPath: m_LocalEulerAnglesHint.x
      value: 90
      objectReference: {fileID: 0}
    - target: {fileID: 3512526509595786583, guid: 88eb4cec0c7324e51bf5e7e1342370e3, type: 3}
      propertyPath: m_LocalEulerAnglesHint.y
      value: 0
      objectReference: {fileID: 0}
    - target: {fileID: 3512526509595786583, guid: 88eb4cec0c7324e51bf5e7e1342370e3, type: 3}
      propertyPath: m_LocalEulerAnglesHint.z
      value: 0
      objectReference: {fileID: 0}
    m_RemovedComponents: []
    m_RemovedGameObjects: []
    m_AddedGameObjects: []
    m_AddedComponents: []
  m_SourcePrefab: {fileID: 100100000, guid: 88eb4cec0c7324e51bf5e7e1342370e3, type: 3}
--- !u!114 &334666149 stripped
MonoBehaviour:
  m_CorrespondingSourceObject: {fileID: 3433872735350211203, guid: 88eb4cec0c7324e51bf5e7e1342370e3, type: 3}
  m_PrefabInstance: {fileID: 334666148}
  m_PrefabAsset: {fileID: 0}
  m_GameObject: {fileID: 0}
  m_Enabled: 1
  m_EditorHideFlags: 0
  m_Script: {fileID: 11500000, guid: 39f0f8f454a2049f3af7bad3dda0481e, type: 3}
  m_Name: 
  m_EditorClassIdentifier: 
--- !u!43 &542582170
Mesh:
  m_ObjectHideFlags: 0
  m_CorrespondingSourceObject: {fileID: 0}
  m_PrefabInstance: {fileID: 0}
  m_PrefabAsset: {fileID: 0}
  m_Name: extrudedMesh
  serializedVersion: 11
  m_SubMeshes:
  - serializedVersion: 2
    firstByte: 0
    indexCount: 0
    topology: 0
    baseVertex: 0
    firstVertex: 0
    vertexCount: 0
    localAABB:
      m_Center: {x: 0, y: 0, z: 0}
      m_Extent: {x: 0, y: 0, z: 0}
  m_Shapes:
    vertices: []
    shapes: []
    channels: []
    fullWeights: []
  m_BindPose: []
  m_BoneNameHashes: 
  m_RootBoneNameHash: 0
  m_BonesAABB: []
  m_VariableBoneCountWeights:
    m_Data: 
  m_MeshCompression: 0
  m_IsReadable: 1
  m_KeepVertices: 1
  m_KeepIndices: 1
  m_IndexFormat: 0
  m_IndexBuffer: 
  m_VertexData:
    serializedVersion: 3
    m_VertexCount: 0
    m_Channels:
    - stream: 0
      offset: 0
      format: 0
      dimension: 0
    - stream: 0
      offset: 0
      format: 0
      dimension: 0
    - stream: 0
      offset: 0
      format: 0
      dimension: 0
    - stream: 0
      offset: 0
      format: 0
      dimension: 0
    - stream: 0
      offset: 0
      format: 0
      dimension: 0
    - stream: 0
      offset: 0
      format: 0
      dimension: 0
    - stream: 0
      offset: 0
      format: 0
      dimension: 0
    - stream: 0
      offset: 0
      format: 0
      dimension: 0
    - stream: 0
      offset: 0
      format: 0
      dimension: 0
    - stream: 0
      offset: 0
      format: 0
      dimension: 0
    - stream: 0
      offset: 0
      format: 0
      dimension: 0
    - stream: 0
      offset: 0
      format: 0
      dimension: 0
    - stream: 0
      offset: 0
      format: 0
      dimension: 0
    - stream: 0
      offset: 0
      format: 0
      dimension: 0
    m_DataSize: 0
    _typelessdata: 
  m_CompressedMesh:
    m_Vertices:
      m_NumItems: 0
      m_Range: 0
      m_Start: 0
      m_Data: 
      m_BitSize: 0
    m_UV:
      m_NumItems: 0
      m_Range: 0
      m_Start: 0
      m_Data: 
      m_BitSize: 0
    m_Normals:
      m_NumItems: 0
      m_Range: 0
      m_Start: 0
      m_Data: 
      m_BitSize: 0
    m_Tangents:
      m_NumItems: 0
      m_Range: 0
      m_Start: 0
      m_Data: 
      m_BitSize: 0
    m_Weights:
      m_NumItems: 0
      m_Data: 
      m_BitSize: 0
    m_NormalSigns:
      m_NumItems: 0
      m_Data: 
      m_BitSize: 0
    m_TangentSigns:
      m_NumItems: 0
      m_Data: 
      m_BitSize: 0
    m_FloatColors:
      m_NumItems: 0
      m_Range: 0
      m_Start: 0
      m_Data: 
      m_BitSize: 0
    m_BoneIndices:
      m_NumItems: 0
      m_Data: 
      m_BitSize: 0
    m_Triangles:
      m_NumItems: 0
      m_Data: 
      m_BitSize: 0
    m_UVInfo: 0
  m_LocalAABB:
    m_Center: {x: 0, y: 0, z: 0}
    m_Extent: {x: 0, y: 0, z: 0}
  m_MeshUsageFlags: 0
  m_CookingOptions: 30
  m_BakedConvexCollisionMesh: 
  m_BakedTriangleCollisionMesh: 
  m_MeshMetrics[0]: 1
  m_MeshMetrics[1]: 1
  m_MeshOptimizationFlags: 1
  m_StreamData:
    serializedVersion: 2
    offset: 0
    size: 0
    path: 
--- !u!1 &599321983
GameObject:
  m_ObjectHideFlags: 0
  m_CorrespondingSourceObject: {fileID: 0}
  m_PrefabInstance: {fileID: 0}
  m_PrefabAsset: {fileID: 0}
  serializedVersion: 6
  m_Component:
  - component: {fileID: 599321989}
  - component: {fileID: 599321988}
  - component: {fileID: 599321987}
  - component: {fileID: 599321986}
  - component: {fileID: 599321985}
  - component: {fileID: 599321984}
  - component: {fileID: 599321990}
  - component: {fileID: 599321991}
  m_Layer: 0
  m_Name: RopeTenser
  m_TagString: Untagged
  m_Icon: {fileID: 0}
  m_NavMeshLayer: 0
  m_StaticEditorFlags: 0
  m_IsActive: 1
--- !u!54 &599321984
Rigidbody:
  m_ObjectHideFlags: 0
  m_CorrespondingSourceObject: {fileID: 0}
  m_PrefabInstance: {fileID: 0}
  m_PrefabAsset: {fileID: 0}
  m_GameObject: {fileID: 599321983}
  serializedVersion: 4
  m_Mass: 1
  m_Drag: 3
  m_AngularDrag: 0
  m_CenterOfMass: {x: 0, y: 0, z: 0}
  m_InertiaTensor: {x: 1, y: 1, z: 1}
  m_InertiaRotation: {x: 0, y: 0, z: 0, w: 1}
  m_IncludeLayers:
    serializedVersion: 2
    m_Bits: 0
  m_ExcludeLayers:
    serializedVersion: 2
    m_Bits: 0
  m_ImplicitCom: 1
  m_ImplicitTensor: 1
  m_UseGravity: 0
  m_IsKinematic: 0
  m_Interpolate: 0
  m_Constraints: 122
  m_CollisionDetection: 0
--- !u!114 &599321985
MonoBehaviour:
  m_ObjectHideFlags: 0
  m_CorrespondingSourceObject: {fileID: 0}
  m_PrefabInstance: {fileID: 0}
  m_PrefabAsset: {fileID: 0}
  m_GameObject: {fileID: 599321983}
  m_Enabled: 1
  m_EditorHideFlags: 0
  m_Script: {fileID: 11500000, guid: 6757b231cedd544c583ef8aeaf773b2a, type: 3}
  m_Name: 
  m_EditorClassIdentifier: 
  thickness: 0
  material: {fileID: 0}
  filter: -65535
  m_SourceCollider: {fileID: 599321986}
  m_DistanceField: {fileID: 0}
--- !u!65 &599321986
BoxCollider:
  m_ObjectHideFlags: 0
  m_CorrespondingSourceObject: {fileID: 0}
  m_PrefabInstance: {fileID: 0}
  m_PrefabAsset: {fileID: 0}
  m_GameObject: {fileID: 599321983}
  m_Material: {fileID: 0}
  m_IncludeLayers:
    serializedVersion: 2
    m_Bits: 0
  m_ExcludeLayers:
    serializedVersion: 2
    m_Bits: 0
  m_LayerOverridePriority: 0
  m_IsTrigger: 0
  m_ProvidesContacts: 0
  m_Enabled: 1
  serializedVersion: 3
  m_Size: {x: 1, y: 1, z: 1}
  m_Center: {x: 0, y: 0, z: 0}
--- !u!23 &599321987
MeshRenderer:
  m_ObjectHideFlags: 0
  m_CorrespondingSourceObject: {fileID: 0}
  m_PrefabInstance: {fileID: 0}
  m_PrefabAsset: {fileID: 0}
  m_GameObject: {fileID: 599321983}
  m_Enabled: 1
  m_CastShadows: 1
  m_ReceiveShadows: 1
  m_DynamicOccludee: 1
  m_StaticShadowCaster: 0
  m_MotionVectors: 1
  m_LightProbeUsage: 1
  m_ReflectionProbeUsage: 1
  m_RayTracingMode: 2
  m_RayTraceProcedural: 0
  m_RenderingLayerMask: 1
  m_RendererPriority: 0
  m_Materials:
  - {fileID: 10303, guid: 0000000000000000f000000000000000, type: 0}
  m_StaticBatchInfo:
    firstSubMesh: 0
    subMeshCount: 0
  m_StaticBatchRoot: {fileID: 0}
  m_ProbeAnchor: {fileID: 0}
  m_LightProbeVolumeOverride: {fileID: 0}
  m_ScaleInLightmap: 1
  m_ReceiveGI: 1
  m_PreserveUVs: 0
  m_IgnoreNormalsForChartDetection: 0
  m_ImportantGI: 0
  m_StitchLightmapSeams: 1
  m_SelectedEditorRenderState: 3
  m_MinimumChartSize: 4
  m_AutoUVMaxDistance: 0.5
  m_AutoUVMaxAngle: 89
  m_LightmapParameters: {fileID: 0}
  m_SortingLayerID: 0
  m_SortingLayer: 0
  m_SortingOrder: 0
  m_AdditionalVertexStreams: {fileID: 0}
--- !u!33 &599321988
MeshFilter:
  m_ObjectHideFlags: 0
  m_CorrespondingSourceObject: {fileID: 0}
  m_PrefabInstance: {fileID: 0}
  m_PrefabAsset: {fileID: 0}
  m_GameObject: {fileID: 599321983}
  m_Mesh: {fileID: 10202, guid: 0000000000000000e000000000000000, type: 0}
--- !u!4 &599321989
Transform:
  m_ObjectHideFlags: 0
  m_CorrespondingSourceObject: {fileID: 0}
  m_PrefabInstance: {fileID: 0}
  m_PrefabAsset: {fileID: 0}
  m_GameObject: {fileID: 599321983}
  serializedVersion: 2
  m_LocalRotation: {x: 0, y: 0, z: 0, w: 1}
  m_LocalPosition: {x: 0, y: -80, z: -0.5}
  m_LocalScale: {x: 3.0698, y: 1, z: 1}
  m_ConstrainProportionsScale: 0
  m_Children: []
  m_Father: {fileID: 0}
  m_LocalEulerAnglesHint: {x: 0, y: 0, z: 0}
--- !u!114 &599321990
MonoBehaviour:
  m_ObjectHideFlags: 0
  m_CorrespondingSourceObject: {fileID: 0}
  m_PrefabInstance: {fileID: 0}
  m_PrefabAsset: {fileID: 0}
  m_GameObject: {fileID: 599321983}
  m_Enabled: 1
  m_EditorHideFlags: 0
  m_Script: {fileID: 11500000, guid: 62359d80fdc0e4315ab6331b78ec5b90, type: 3}
  m_Name: 
  m_EditorClassIdentifier: 
  kinematicForParticles: 0
--- !u!114 &599321991
MonoBehaviour:
  m_ObjectHideFlags: 0
  m_CorrespondingSourceObject: {fileID: 0}
  m_PrefabInstance: {fileID: 0}
  m_PrefabAsset: {fileID: 0}
  m_GameObject: {fileID: 599321983}
  m_Enabled: 1
  m_EditorHideFlags: 0
  m_Script: {fileID: 11500000, guid: 6a01ab42f187a43818168cd1cd11d3cf, type: 3}
  m_Name: 
  m_EditorClassIdentifier: 
  force: 400
--- !u!1 &615688258
GameObject:
  m_ObjectHideFlags: 0
  m_CorrespondingSourceObject: {fileID: 0}
  m_PrefabInstance: {fileID: 0}
  m_PrefabAsset: {fileID: 0}
  serializedVersion: 6
  m_Component:
  - component: {fileID: 615688260}
  - component: {fileID: 615688259}
  m_Layer: 0
  m_Name: Directional Light
  m_TagString: Untagged
  m_Icon: {fileID: 0}
  m_NavMeshLayer: 0
  m_StaticEditorFlags: 0
  m_IsActive: 1
--- !u!108 &615688259
Light:
  m_ObjectHideFlags: 0
  m_CorrespondingSourceObject: {fileID: 0}
  m_PrefabInstance: {fileID: 0}
  m_PrefabAsset: {fileID: 0}
  m_GameObject: {fileID: 615688258}
  m_Enabled: 1
  serializedVersion: 10
  m_Type: 1
  m_Shape: 0
  m_Color: {r: 1, g: 1, b: 1, a: 1}
  m_Intensity: 1
  m_Range: 10
  m_SpotAngle: 30
  m_InnerSpotAngle: 21.80208
  m_CookieSize: 10
  m_Shadows:
    m_Type: 2
    m_Resolution: -1
    m_CustomResolution: -1
    m_Strength: 1
    m_Bias: 0.05
    m_NormalBias: 0.4
    m_NearPlane: 0.2
    m_CullingMatrixOverride:
      e00: 1
      e01: 0
      e02: 0
      e03: 0
      e10: 0
      e11: 1
      e12: 0
      e13: 0
      e20: 0
      e21: 0
      e22: 1
      e23: 0
      e30: 0
      e31: 0
      e32: 0
      e33: 1
    m_UseCullingMatrixOverride: 0
  m_Cookie: {fileID: 0}
  m_DrawHalo: 0
  m_Flare: {fileID: 0}
  m_RenderMode: 0
  m_CullingMask:
    serializedVersion: 2
    m_Bits: 4294967295
  m_RenderingLayerMask: 1
  m_Lightmapping: 4
  m_LightShadowCasterMode: 0
  m_AreaSize: {x: 1, y: 1}
  m_BounceIntensity: 1
  m_ColorTemperature: 6570
  m_UseColorTemperature: 0
  m_BoundingSphereOverride: {x: 0, y: 0, z: 0, w: 0}
  m_UseBoundingSphereOverride: 0
  m_UseViewFrustumForShadowCasterCull: 1
  m_ShadowRadius: 0
  m_ShadowAngle: 0
--- !u!4 &615688260
Transform:
  m_ObjectHideFlags: 0
  m_CorrespondingSourceObject: {fileID: 0}
  m_PrefabInstance: {fileID: 0}
  m_PrefabAsset: {fileID: 0}
  m_GameObject: {fileID: 615688258}
  serializedVersion: 2
  m_LocalRotation: {x: 0.17818838, y: -0.24294695, z: 0.23929165, w: 0.92301965}
  m_LocalPosition: {x: 0, y: 3, z: 0}
  m_LocalScale: {x: 1, y: 1, z: 1}
  m_ConstrainProportionsScale: 0
  m_Children: []
  m_Father: {fileID: 0}
  m_LocalEulerAnglesHint: {x: 26.437002, y: -23.931002, z: 23.368002}
--- !u!1 &862377248
GameObject:
  m_ObjectHideFlags: 0
  m_CorrespondingSourceObject: {fileID: 0}
  m_PrefabInstance: {fileID: 0}
  m_PrefabAsset: {fileID: 0}
  serializedVersion: 6
  m_Component:
  - component: {fileID: 862377252}
  - component: {fileID: 862377251}
  - component: {fileID: 862377250}
  - component: {fileID: 862377253}
  - component: {fileID: 862377254}
  - component: {fileID: 862377255}
  - component: {fileID: 862377256}
  - component: {fileID: 862377249}
  m_Layer: 0
  m_Name: Player
  m_TagString: Untagged
  m_Icon: {fileID: 0}
  m_NavMeshLayer: 0
  m_StaticEditorFlags: 0
  m_IsActive: 1
--- !u!135 &862377249
SphereCollider:
  m_ObjectHideFlags: 0
  m_CorrespondingSourceObject: {fileID: 0}
  m_PrefabInstance: {fileID: 0}
  m_PrefabAsset: {fileID: 0}
  m_GameObject: {fileID: 862377248}
  m_Material: {fileID: 0}
  m_IncludeLayers:
    serializedVersion: 2
    m_Bits: 0
  m_ExcludeLayers:
    serializedVersion: 2
    m_Bits: 0
  m_LayerOverridePriority: 0
  m_IsTrigger: 0
  m_ProvidesContacts: 0
  m_Enabled: 1
  serializedVersion: 3
  m_Radius: 0.5
  m_Center: {x: 0, y: 0, z: 0}
--- !u!23 &862377250
MeshRenderer:
  m_ObjectHideFlags: 0
  m_CorrespondingSourceObject: {fileID: 0}
  m_PrefabInstance: {fileID: 0}
  m_PrefabAsset: {fileID: 0}
  m_GameObject: {fileID: 862377248}
  m_Enabled: 1
  m_CastShadows: 1
  m_ReceiveShadows: 1
  m_DynamicOccludee: 1
  m_StaticShadowCaster: 0
  m_MotionVectors: 1
  m_LightProbeUsage: 1
  m_ReflectionProbeUsage: 1
  m_RayTracingMode: 2
  m_RayTraceProcedural: 0
  m_RenderingLayerMask: 1
  m_RendererPriority: 0
  m_Materials:
  - {fileID: 2100000, guid: edc856900ac3941a98996e21e91e215e, type: 2}
  m_StaticBatchInfo:
    firstSubMesh: 0
    subMeshCount: 0
  m_StaticBatchRoot: {fileID: 0}
  m_ProbeAnchor: {fileID: 0}
  m_LightProbeVolumeOverride: {fileID: 0}
  m_ScaleInLightmap: 1
  m_ReceiveGI: 1
  m_PreserveUVs: 0
  m_IgnoreNormalsForChartDetection: 0
  m_ImportantGI: 0
  m_StitchLightmapSeams: 1
  m_SelectedEditorRenderState: 3
  m_MinimumChartSize: 4
  m_AutoUVMaxDistance: 0.5
  m_AutoUVMaxAngle: 89
  m_LightmapParameters: {fileID: 0}
  m_SortingLayerID: 0
  m_SortingLayer: 0
  m_SortingOrder: 0
  m_AdditionalVertexStreams: {fileID: 0}
--- !u!33 &862377251
MeshFilter:
  m_ObjectHideFlags: 0
  m_CorrespondingSourceObject: {fileID: 0}
  m_PrefabInstance: {fileID: 0}
  m_PrefabAsset: {fileID: 0}
  m_GameObject: {fileID: 862377248}
  m_Mesh: {fileID: 10207, guid: 0000000000000000e000000000000000, type: 0}
--- !u!4 &862377252
Transform:
  m_ObjectHideFlags: 0
  m_CorrespondingSourceObject: {fileID: 0}
  m_PrefabInstance: {fileID: 0}
  m_PrefabAsset: {fileID: 0}
  m_GameObject: {fileID: 862377248}
  serializedVersion: 2
  m_LocalRotation: {x: 0, y: 0, z: 0, w: 1}
  m_LocalPosition: {x: 0, y: -0.5, z: -0.5}
  m_LocalScale: {x: 1.5, y: 1.5, z: 1.5}
  m_ConstrainProportionsScale: 0
  m_Children: []
  m_Father: {fileID: 0}
  m_LocalEulerAnglesHint: {x: 0, y: 0, z: 0}
--- !u!114 &862377253
MonoBehaviour:
  m_ObjectHideFlags: 0
  m_CorrespondingSourceObject: {fileID: 0}
  m_PrefabInstance: {fileID: 0}
  m_PrefabAsset: {fileID: 0}
  m_GameObject: {fileID: 862377248}
  m_Enabled: 1
  m_EditorHideFlags: 0
  m_Script: {fileID: 11500000, guid: 6757b231cedd544c583ef8aeaf773b2a, type: 3}
  m_Name: 
  m_EditorClassIdentifier: 
  thickness: 0
  material: {fileID: 0}
  filter: -131071
  m_SourceCollider: {fileID: 862377249}
  m_DistanceField: {fileID: 0}
--- !u!54 &862377254
Rigidbody:
  m_ObjectHideFlags: 0
  m_CorrespondingSourceObject: {fileID: 0}
  m_PrefabInstance: {fileID: 0}
  m_PrefabAsset: {fileID: 0}
  m_GameObject: {fileID: 862377248}
  serializedVersion: 4
  m_Mass: 30
  m_Drag: 5
  m_AngularDrag: 0.05
  m_CenterOfMass: {x: 0, y: 0, z: 0}
  m_InertiaTensor: {x: 1, y: 1, z: 1}
  m_InertiaRotation: {x: 0, y: 0, z: 0, w: 1}
  m_IncludeLayers:
    serializedVersion: 2
    m_Bits: 0
  m_ExcludeLayers:
    serializedVersion: 2
    m_Bits: 0
  m_ImplicitCom: 1
  m_ImplicitTensor: 1
  m_UseGravity: 0
  m_IsKinematic: 0
  m_Interpolate: 0
  m_Constraints: 120
  m_CollisionDetection: 0
--- !u!114 &862377255
MonoBehaviour:
  m_ObjectHideFlags: 0
  m_CorrespondingSourceObject: {fileID: 0}
  m_PrefabInstance: {fileID: 0}
  m_PrefabAsset: {fileID: 0}
  m_GameObject: {fileID: 862377248}
  m_Enabled: 1
  m_EditorHideFlags: 0
  m_Script: {fileID: 11500000, guid: 62359d80fdc0e4315ab6331b78ec5b90, type: 3}
  m_Name: 
  m_EditorClassIdentifier: 
  kinematicForParticles: 0
--- !u!114 &862377256
MonoBehaviour:
  m_ObjectHideFlags: 0
  m_CorrespondingSourceObject: {fileID: 0}
  m_PrefabInstance: {fileID: 0}
  m_PrefabAsset: {fileID: 0}
  m_GameObject: {fileID: 862377248}
  m_Enabled: 1
  m_EditorHideFlags: 0
  m_Script: {fileID: 11500000, guid: fdf58ad80e1cd4860aa12e8da0aa833c, type: 3}
  m_Name: 
  m_EditorClassIdentifier: 
  acceleration: 50
--- !u!1 &876719292
GameObject:
  m_ObjectHideFlags: 0
  m_CorrespondingSourceObject: {fileID: 0}
  m_PrefabInstance: {fileID: 0}
  m_PrefabAsset: {fileID: 0}
  serializedVersion: 6
  m_Component:
  - component: {fileID: 876719296}
  - component: {fileID: 876719295}
  - component: {fileID: 876719294}
  - component: {fileID: 876719293}
  m_Layer: 5
  m_Name: Canvas
  m_TagString: Untagged
  m_Icon: {fileID: 0}
  m_NavMeshLayer: 0
  m_StaticEditorFlags: 0
  m_IsActive: 1
--- !u!114 &876719293
MonoBehaviour:
  m_ObjectHideFlags: 0
  m_CorrespondingSourceObject: {fileID: 0}
  m_PrefabInstance: {fileID: 0}
  m_PrefabAsset: {fileID: 0}
  m_GameObject: {fileID: 876719292}
  m_Enabled: 1
  m_EditorHideFlags: 0
  m_Script: {fileID: 11500000, guid: dc42784cf147c0c48a680349fa168899, type: 3}
  m_Name: 
  m_EditorClassIdentifier: 
  m_IgnoreReversedGraphics: 1
  m_BlockingObjects: 0
  m_BlockingMask:
    serializedVersion: 2
    m_Bits: 4294967295
--- !u!114 &876719294
MonoBehaviour:
  m_ObjectHideFlags: 0
  m_CorrespondingSourceObject: {fileID: 0}
  m_PrefabInstance: {fileID: 0}
  m_PrefabAsset: {fileID: 0}
  m_GameObject: {fileID: 876719292}
  m_Enabled: 1
  m_EditorHideFlags: 0
  m_Script: {fileID: 11500000, guid: 0cd44c1031e13a943bb63640046fad76, type: 3}
  m_Name: 
  m_EditorClassIdentifier: 
  m_UiScaleMode: 0
  m_ReferencePixelsPerUnit: 100
  m_ScaleFactor: 1
  m_ReferenceResolution: {x: 800, y: 600}
  m_ScreenMatchMode: 0
  m_MatchWidthOrHeight: 0
  m_PhysicalUnit: 3
  m_FallbackScreenDPI: 96
  m_DefaultSpriteDPI: 96
  m_DynamicPixelsPerUnit: 1
  m_PresetInfoIsWorld: 0
--- !u!223 &876719295
Canvas:
  m_ObjectHideFlags: 0
  m_CorrespondingSourceObject: {fileID: 0}
  m_PrefabInstance: {fileID: 0}
  m_PrefabAsset: {fileID: 0}
  m_GameObject: {fileID: 876719292}
  m_Enabled: 1
  serializedVersion: 3
  m_RenderMode: 0
  m_Camera: {fileID: 0}
  m_PlaneDistance: 100
  m_PixelPerfect: 0
  m_ReceivesEvents: 1
  m_OverrideSorting: 0
  m_OverridePixelPerfect: 0
  m_SortingBucketNormalizedSize: 0
  m_VertexColorAlwaysGammaSpace: 0
  m_AdditionalShaderChannelsFlag: 1
  m_UpdateRectTransformForStandalone: 0
  m_SortingLayerID: 0
  m_SortingOrder: 0
  m_TargetDisplay: 0
--- !u!224 &876719296
RectTransform:
  m_ObjectHideFlags: 0
  m_CorrespondingSourceObject: {fileID: 0}
  m_PrefabInstance: {fileID: 0}
  m_PrefabAsset: {fileID: 0}
  m_GameObject: {fileID: 876719292}
  m_LocalRotation: {x: 0, y: 0, z: 0, w: 1}
  m_LocalPosition: {x: 0, y: 0, z: 0}
  m_LocalScale: {x: 0, y: 0, z: 0}
  m_ConstrainProportionsScale: 0
  m_Children:
  - {fileID: 178620545}
  - {fileID: 1406884019}
  m_Father: {fileID: 0}
  m_LocalEulerAnglesHint: {x: 0, y: 0, z: 0}
  m_AnchorMin: {x: 0, y: 0}
  m_AnchorMax: {x: 0, y: 0}
  m_AnchoredPosition: {x: 0, y: 0}
  m_SizeDelta: {x: 0, y: 0}
  m_Pivot: {x: 0, y: 0}
--- !u!1001 &1015286417
PrefabInstance:
  m_ObjectHideFlags: 0
  serializedVersion: 2
  m_Modification:
    serializedVersion: 3
    m_TransformParent: {fileID: 0}
    m_Modifications:
    - target: {fileID: 3512526509595786538, guid: 88eb4cec0c7324e51bf5e7e1342370e3, type: 3}
      propertyPath: m_Name
      value: WrapPeg
      objectReference: {fileID: 0}
    - target: {fileID: 3512526509595786583, guid: 88eb4cec0c7324e51bf5e7e1342370e3, type: 3}
      propertyPath: m_RootOrder
      value: 3
      objectReference: {fileID: 0}
    - target: {fileID: 3512526509595786583, guid: 88eb4cec0c7324e51bf5e7e1342370e3, type: 3}
      propertyPath: m_LocalPosition.x
      value: -3.0921412
      objectReference: {fileID: 0}
    - target: {fileID: 3512526509595786583, guid: 88eb4cec0c7324e51bf5e7e1342370e3, type: 3}
      propertyPath: m_LocalPosition.y
      value: 3.5687833
      objectReference: {fileID: 0}
    - target: {fileID: 3512526509595786583, guid: 88eb4cec0c7324e51bf5e7e1342370e3, type: 3}
      propertyPath: m_LocalPosition.z
      value: -0.5
      objectReference: {fileID: 0}
    - target: {fileID: 3512526509595786583, guid: 88eb4cec0c7324e51bf5e7e1342370e3, type: 3}
      propertyPath: m_LocalRotation.w
      value: 0.7071068
      objectReference: {fileID: 0}
    - target: {fileID: 3512526509595786583, guid: 88eb4cec0c7324e51bf5e7e1342370e3, type: 3}
      propertyPath: m_LocalRotation.x
      value: 0.7071068
      objectReference: {fileID: 0}
    - target: {fileID: 3512526509595786583, guid: 88eb4cec0c7324e51bf5e7e1342370e3, type: 3}
      propertyPath: m_LocalRotation.y
      value: 0
      objectReference: {fileID: 0}
    - target: {fileID: 3512526509595786583, guid: 88eb4cec0c7324e51bf5e7e1342370e3, type: 3}
      propertyPath: m_LocalRotation.z
      value: 0
      objectReference: {fileID: 0}
    - target: {fileID: 3512526509595786583, guid: 88eb4cec0c7324e51bf5e7e1342370e3, type: 3}
      propertyPath: m_LocalEulerAnglesHint.x
      value: 90
      objectReference: {fileID: 0}
    - target: {fileID: 3512526509595786583, guid: 88eb4cec0c7324e51bf5e7e1342370e3, type: 3}
      propertyPath: m_LocalEulerAnglesHint.y
      value: 0
      objectReference: {fileID: 0}
    - target: {fileID: 3512526509595786583, guid: 88eb4cec0c7324e51bf5e7e1342370e3, type: 3}
      propertyPath: m_LocalEulerAnglesHint.z
      value: 0
      objectReference: {fileID: 0}
    m_RemovedComponents: []
    m_RemovedGameObjects: []
    m_AddedGameObjects: []
    m_AddedComponents: []
  m_SourcePrefab: {fileID: 100100000, guid: 88eb4cec0c7324e51bf5e7e1342370e3, type: 3}
--- !u!114 &1015286418 stripped
MonoBehaviour:
  m_CorrespondingSourceObject: {fileID: 3433872735350211203, guid: 88eb4cec0c7324e51bf5e7e1342370e3, type: 3}
  m_PrefabInstance: {fileID: 1015286417}
  m_PrefabAsset: {fileID: 0}
  m_GameObject: {fileID: 0}
  m_Enabled: 1
  m_EditorHideFlags: 0
  m_Script: {fileID: 11500000, guid: 39f0f8f454a2049f3af7bad3dda0481e, type: 3}
  m_Name: 
  m_EditorClassIdentifier: 
--- !u!1 &1264929928
GameObject:
  m_ObjectHideFlags: 0
  m_CorrespondingSourceObject: {fileID: 0}
  m_PrefabInstance: {fileID: 0}
  m_PrefabAsset: {fileID: 0}
  serializedVersion: 6
  m_Component:
  - component: {fileID: 1264929930}
  - component: {fileID: 1264929929}
  m_Layer: 0
  m_Name: OniCollisionWorld
  m_TagString: Untagged
  m_Icon: {fileID: 0}
  m_NavMeshLayer: 0
  m_StaticEditorFlags: 0
  m_IsActive: 1
--- !u!114 &1264929929
MonoBehaviour:
  m_ObjectHideFlags: 0
  m_CorrespondingSourceObject: {fileID: 0}
  m_PrefabInstance: {fileID: 0}
  m_PrefabAsset: {fileID: 0}
  m_GameObject: {fileID: 1264929928}
  m_Enabled: 1
  m_EditorHideFlags: 0
  m_Script: {fileID: 11500000, guid: d02d25c24c8574316883c920912e4fdb, type: 3}
  m_Name: 
  m_EditorClassIdentifier: 
--- !u!4 &1264929930
Transform:
  m_ObjectHideFlags: 0
  m_CorrespondingSourceObject: {fileID: 0}
  m_PrefabInstance: {fileID: 0}
  m_PrefabAsset: {fileID: 0}
  m_GameObject: {fileID: 1264929928}
  serializedVersion: 2
  m_LocalRotation: {x: 0, y: 0, z: 0, w: 1}
  m_LocalPosition: {x: 0, y: 0, z: 0}
  m_LocalScale: {x: 1, y: 1, z: 1}
  m_ConstrainProportionsScale: 0
  m_Children: []
  m_Father: {fileID: 0}
  m_LocalEulerAnglesHint: {x: 0, y: 0, z: 0}
--- !u!1 &1276486554
GameObject:
  m_ObjectHideFlags: 0
  m_CorrespondingSourceObject: {fileID: 0}
  m_PrefabInstance: {fileID: 0}
  m_PrefabAsset: {fileID: 0}
  serializedVersion: 6
  m_Component:
  - component: {fileID: 1276486558}
  - component: {fileID: 1276486557}
  - component: {fileID: 1276486556}
  - component: {fileID: 1276486561}
  - component: {fileID: 1276486560}
  - component: {fileID: 1276486559}
  - component: {fileID: 1276486555}
  m_Layer: 0
  m_Name: RopeSource
  m_TagString: Untagged
  m_Icon: {fileID: 0}
  m_NavMeshLayer: 0
  m_StaticEditorFlags: 0
  m_IsActive: 1
--- !u!114 &1276486555
MonoBehaviour:
  m_ObjectHideFlags: 0
  m_CorrespondingSourceObject: {fileID: 0}
  m_PrefabInstance: {fileID: 0}
  m_PrefabAsset: {fileID: 0}
  m_GameObject: {fileID: 1276486554}
  m_Enabled: 1
  m_EditorHideFlags: 0
  m_Script: {fileID: 11500000, guid: 6757b231cedd544c583ef8aeaf773b2a, type: 3}
  m_Name: 
  m_EditorClassIdentifier: 
  thickness: 0.05
  material: {fileID: 0}
  filter: -65535
  m_SourceCollider: {fileID: 1276486560}
  m_DistanceField: {fileID: 0}
--- !u!23 &1276486556
MeshRenderer:
  m_ObjectHideFlags: 0
  m_CorrespondingSourceObject: {fileID: 0}
  m_PrefabInstance: {fileID: 0}
  m_PrefabAsset: {fileID: 0}
  m_GameObject: {fileID: 1276486554}
  m_Enabled: 1
  m_CastShadows: 1
  m_ReceiveShadows: 1
  m_DynamicOccludee: 1
  m_StaticShadowCaster: 0
  m_MotionVectors: 1
  m_LightProbeUsage: 1
  m_ReflectionProbeUsage: 1
  m_RayTracingMode: 2
  m_RayTraceProcedural: 0
  m_RenderingLayerMask: 1
  m_RendererPriority: 0
  m_Materials:
  - {fileID: 2100000, guid: edc856900ac3941a98996e21e91e215e, type: 2}
  m_StaticBatchInfo:
    firstSubMesh: 0
    subMeshCount: 0
  m_StaticBatchRoot: {fileID: 0}
  m_ProbeAnchor: {fileID: 0}
  m_LightProbeVolumeOverride: {fileID: 0}
  m_ScaleInLightmap: 1
  m_ReceiveGI: 1
  m_PreserveUVs: 0
  m_IgnoreNormalsForChartDetection: 0
  m_ImportantGI: 0
  m_StitchLightmapSeams: 1
  m_SelectedEditorRenderState: 3
  m_MinimumChartSize: 4
  m_AutoUVMaxDistance: 0.5
  m_AutoUVMaxAngle: 89
  m_LightmapParameters: {fileID: 0}
  m_SortingLayerID: 0
  m_SortingLayer: 0
  m_SortingOrder: 0
  m_AdditionalVertexStreams: {fileID: 0}
--- !u!33 &1276486557
MeshFilter:
  m_ObjectHideFlags: 0
  m_CorrespondingSourceObject: {fileID: 0}
  m_PrefabInstance: {fileID: 0}
  m_PrefabAsset: {fileID: 0}
  m_GameObject: {fileID: 1276486554}
  m_Mesh: {fileID: 10206, guid: 0000000000000000e000000000000000, type: 0}
--- !u!4 &1276486558
Transform:
  m_ObjectHideFlags: 0
  m_CorrespondingSourceObject: {fileID: 0}
  m_PrefabInstance: {fileID: 0}
  m_PrefabAsset: {fileID: 0}
  m_GameObject: {fileID: 1276486554}
  serializedVersion: 2
  m_LocalRotation: {x: 0, y: 0, z: 0, w: 1}
  m_LocalPosition: {x: 0, y: -8, z: 0}
  m_LocalScale: {x: 2.5, y: 2.5, z: 2.5}
  m_ConstrainProportionsScale: 0
  m_Children: []
  m_Father: {fileID: 0}
  m_LocalEulerAnglesHint: {x: 0, y: 0, z: 0}
--- !u!114 &1276486559
MonoBehaviour:
  m_ObjectHideFlags: 0
  m_CorrespondingSourceObject: {fileID: 0}
  m_PrefabInstance: {fileID: 0}
  m_PrefabAsset: {fileID: 0}
  m_GameObject: {fileID: 1276486554}
  m_Enabled: 1
  m_EditorHideFlags: 0
  m_Script: {fileID: 11500000, guid: 6757b231cedd544c583ef8aeaf773b2a, type: 3}
  m_Name: 
  m_EditorClassIdentifier: 
  thickness: 0.05
  material: {fileID: 0}
  filter: -65535
  m_SourceCollider: {fileID: 1276486561}
  m_DistanceField: {fileID: 0}
--- !u!65 &1276486560
BoxCollider:
  m_ObjectHideFlags: 0
  m_CorrespondingSourceObject: {fileID: 0}
  m_PrefabInstance: {fileID: 0}
  m_PrefabAsset: {fileID: 0}
  m_GameObject: {fileID: 1276486554}
  m_Material: {fileID: 0}
  m_IncludeLayers:
    serializedVersion: 2
    m_Bits: 0
  m_ExcludeLayers:
    serializedVersion: 2
    m_Bits: 0
  m_LayerOverridePriority: 0
  m_IsTrigger: 0
  m_ProvidesContacts: 0
  m_Enabled: 1
  serializedVersion: 3
  m_Size: {x: 10, y: 2, z: 1.0000002}
  m_Center: {x: -5.2, y: 0, z: 0}
--- !u!65 &1276486561
BoxCollider:
  m_ObjectHideFlags: 0
  m_CorrespondingSourceObject: {fileID: 0}
  m_PrefabInstance: {fileID: 0}
  m_PrefabAsset: {fileID: 0}
  m_GameObject: {fileID: 1276486554}
  m_Material: {fileID: 0}
  m_IncludeLayers:
    serializedVersion: 2
    m_Bits: 0
  m_ExcludeLayers:
    serializedVersion: 2
    m_Bits: 0
  m_LayerOverridePriority: 0
  m_IsTrigger: 0
  m_ProvidesContacts: 0
  m_Enabled: 1
  serializedVersion: 3
  m_Size: {x: 10, y: 2, z: 1.0000002}
  m_Center: {x: 5.2, y: 0, z: 0}
--- !u!1 &1406884018
GameObject:
  m_ObjectHideFlags: 0
  m_CorrespondingSourceObject: {fileID: 0}
  m_PrefabInstance: {fileID: 0}
  m_PrefabAsset: {fileID: 0}
  serializedVersion: 6
  m_Component:
  - component: {fileID: 1406884019}
  m_Layer: 5
  m_Name: FinishMessage
  m_TagString: Untagged
  m_Icon: {fileID: 0}
  m_NavMeshLayer: 0
  m_StaticEditorFlags: 0
  m_IsActive: 0
--- !u!224 &1406884019
RectTransform:
  m_ObjectHideFlags: 0
  m_CorrespondingSourceObject: {fileID: 0}
  m_PrefabInstance: {fileID: 0}
  m_PrefabAsset: {fileID: 0}
  m_GameObject: {fileID: 1406884018}
  m_LocalRotation: {x: 0, y: 0, z: 0, w: 1}
  m_LocalPosition: {x: 0, y: 0, z: 0}
  m_LocalScale: {x: 1, y: 1, z: 1}
  m_ConstrainProportionsScale: 0
  m_Children:
  - {fileID: 266503052}
  m_Father: {fileID: 876719296}
  m_LocalEulerAnglesHint: {x: 0, y: 0, z: 0}
  m_AnchorMin: {x: 0.5, y: 0.5}
  m_AnchorMax: {x: 0.5, y: 0.5}
  m_AnchoredPosition: {x: 0, y: 0}
  m_SizeDelta: {x: 824, y: 590}
  m_Pivot: {x: 0.5, y: 0.5}
--- !u!1001 &1430085410
PrefabInstance:
  m_ObjectHideFlags: 0
  serializedVersion: 2
  m_Modification:
    serializedVersion: 3
    m_TransformParent: {fileID: 0}
    m_Modifications:
    - target: {fileID: 3512526509595786538, guid: 88eb4cec0c7324e51bf5e7e1342370e3, type: 3}
      propertyPath: m_Name
      value: WrapPeg (4)
      objectReference: {fileID: 0}
    - target: {fileID: 3512526509595786583, guid: 88eb4cec0c7324e51bf5e7e1342370e3, type: 3}
      propertyPath: m_RootOrder
      value: 7
      objectReference: {fileID: 0}
    - target: {fileID: 3512526509595786583, guid: 88eb4cec0c7324e51bf5e7e1342370e3, type: 3}
      propertyPath: m_LocalPosition.x
      value: 3.1000004
      objectReference: {fileID: 0}
    - target: {fileID: 3512526509595786583, guid: 88eb4cec0c7324e51bf5e7e1342370e3, type: 3}
      propertyPath: m_LocalPosition.y
      value: 10.62
      objectReference: {fileID: 0}
    - target: {fileID: 3512526509595786583, guid: 88eb4cec0c7324e51bf5e7e1342370e3, type: 3}
      propertyPath: m_LocalPosition.z
      value: -0.5
      objectReference: {fileID: 0}
    - target: {fileID: 3512526509595786583, guid: 88eb4cec0c7324e51bf5e7e1342370e3, type: 3}
      propertyPath: m_LocalRotation.w
      value: 0.7071068
      objectReference: {fileID: 0}
    - target: {fileID: 3512526509595786583, guid: 88eb4cec0c7324e51bf5e7e1342370e3, type: 3}
      propertyPath: m_LocalRotation.x
      value: 0.7071068
      objectReference: {fileID: 0}
    - target: {fileID: 3512526509595786583, guid: 88eb4cec0c7324e51bf5e7e1342370e3, type: 3}
      propertyPath: m_LocalRotation.y
      value: 0
      objectReference: {fileID: 0}
    - target: {fileID: 3512526509595786583, guid: 88eb4cec0c7324e51bf5e7e1342370e3, type: 3}
      propertyPath: m_LocalRotation.z
      value: 0
      objectReference: {fileID: 0}
    - target: {fileID: 3512526509595786583, guid: 88eb4cec0c7324e51bf5e7e1342370e3, type: 3}
      propertyPath: m_LocalEulerAnglesHint.x
      value: 90
      objectReference: {fileID: 0}
    - target: {fileID: 3512526509595786583, guid: 88eb4cec0c7324e51bf5e7e1342370e3, type: 3}
      propertyPath: m_LocalEulerAnglesHint.y
      value: 0
      objectReference: {fileID: 0}
    - target: {fileID: 3512526509595786583, guid: 88eb4cec0c7324e51bf5e7e1342370e3, type: 3}
      propertyPath: m_LocalEulerAnglesHint.z
      value: 0
      objectReference: {fileID: 0}
    m_RemovedComponents: []
    m_RemovedGameObjects: []
    m_AddedGameObjects: []
    m_AddedComponents: []
  m_SourcePrefab: {fileID: 100100000, guid: 88eb4cec0c7324e51bf5e7e1342370e3, type: 3}
--- !u!114 &1430085411 stripped
MonoBehaviour:
  m_CorrespondingSourceObject: {fileID: 3433872735350211203, guid: 88eb4cec0c7324e51bf5e7e1342370e3, type: 3}
  m_PrefabInstance: {fileID: 1430085410}
  m_PrefabAsset: {fileID: 0}
  m_GameObject: {fileID: 0}
  m_Enabled: 1
  m_EditorHideFlags: 0
  m_Script: {fileID: 11500000, guid: 39f0f8f454a2049f3af7bad3dda0481e, type: 3}
  m_Name: 
  m_EditorClassIdentifier: 
--- !u!1001 &1595626174
PrefabInstance:
  m_ObjectHideFlags: 0
  serializedVersion: 2
  m_Modification:
    serializedVersion: 3
    m_TransformParent: {fileID: 0}
    m_Modifications:
    - target: {fileID: 3512526509595786538, guid: 88eb4cec0c7324e51bf5e7e1342370e3, type: 3}
      propertyPath: m_Name
      value: WrapPeg (1)
      objectReference: {fileID: 0}
    - target: {fileID: 3512526509595786583, guid: 88eb4cec0c7324e51bf5e7e1342370e3, type: 3}
      propertyPath: m_RootOrder
      value: 4
      objectReference: {fileID: 0}
    - target: {fileID: 3512526509595786583, guid: 88eb4cec0c7324e51bf5e7e1342370e3, type: 3}
      propertyPath: m_LocalPosition.x
      value: 3.6800003
      objectReference: {fileID: 0}
    - target: {fileID: 3512526509595786583, guid: 88eb4cec0c7324e51bf5e7e1342370e3, type: 3}
      propertyPath: m_LocalPosition.y
      value: 3.5687833
      objectReference: {fileID: 0}
    - target: {fileID: 3512526509595786583, guid: 88eb4cec0c7324e51bf5e7e1342370e3, type: 3}
      propertyPath: m_LocalPosition.z
      value: -0.5
      objectReference: {fileID: 0}
    - target: {fileID: 3512526509595786583, guid: 88eb4cec0c7324e51bf5e7e1342370e3, type: 3}
      propertyPath: m_LocalRotation.w
      value: 0.7071068
      objectReference: {fileID: 0}
    - target: {fileID: 3512526509595786583, guid: 88eb4cec0c7324e51bf5e7e1342370e3, type: 3}
      propertyPath: m_LocalRotation.x
      value: 0.7071068
      objectReference: {fileID: 0}
    - target: {fileID: 3512526509595786583, guid: 88eb4cec0c7324e51bf5e7e1342370e3, type: 3}
      propertyPath: m_LocalRotation.y
      value: 0
      objectReference: {fileID: 0}
    - target: {fileID: 3512526509595786583, guid: 88eb4cec0c7324e51bf5e7e1342370e3, type: 3}
      propertyPath: m_LocalRotation.z
      value: 0
      objectReference: {fileID: 0}
    - target: {fileID: 3512526509595786583, guid: 88eb4cec0c7324e51bf5e7e1342370e3, type: 3}
      propertyPath: m_LocalEulerAnglesHint.x
      value: 90
      objectReference: {fileID: 0}
    - target: {fileID: 3512526509595786583, guid: 88eb4cec0c7324e51bf5e7e1342370e3, type: 3}
      propertyPath: m_LocalEulerAnglesHint.y
      value: 0
      objectReference: {fileID: 0}
    - target: {fileID: 3512526509595786583, guid: 88eb4cec0c7324e51bf5e7e1342370e3, type: 3}
      propertyPath: m_LocalEulerAnglesHint.z
      value: 0
      objectReference: {fileID: 0}
    m_RemovedComponents: []
    m_RemovedGameObjects: []
    m_AddedGameObjects: []
    m_AddedComponents: []
  m_SourcePrefab: {fileID: 100100000, guid: 88eb4cec0c7324e51bf5e7e1342370e3, type: 3}
--- !u!114 &1595626175 stripped
MonoBehaviour:
  m_CorrespondingSourceObject: {fileID: 3433872735350211203, guid: 88eb4cec0c7324e51bf5e7e1342370e3, type: 3}
  m_PrefabInstance: {fileID: 1595626174}
  m_PrefabAsset: {fileID: 0}
  m_GameObject: {fileID: 0}
  m_Enabled: 1
  m_EditorHideFlags: 0
  m_Script: {fileID: 11500000, guid: 39f0f8f454a2049f3af7bad3dda0481e, type: 3}
  m_Name: 
  m_EditorClassIdentifier: 
--- !u!1 &1612476492
GameObject:
  m_ObjectHideFlags: 0
  m_CorrespondingSourceObject: {fileID: 0}
  m_PrefabInstance: {fileID: 0}
  m_PrefabAsset: {fileID: 0}
  serializedVersion: 6
  m_Component:
  - component: {fileID: 1612476495}
  - component: {fileID: 1612476494}
  - component: {fileID: 1612476493}
  m_Layer: 0
  m_Name: Main Camera
  m_TagString: MainCamera
  m_Icon: {fileID: 0}
  m_NavMeshLayer: 0
  m_StaticEditorFlags: 0
  m_IsActive: 1
--- !u!81 &1612476493
AudioListener:
  m_ObjectHideFlags: 0
  m_CorrespondingSourceObject: {fileID: 0}
  m_PrefabInstance: {fileID: 0}
  m_PrefabAsset: {fileID: 0}
  m_GameObject: {fileID: 1612476492}
  m_Enabled: 1
--- !u!20 &1612476494
Camera:
  m_ObjectHideFlags: 0
  m_CorrespondingSourceObject: {fileID: 0}
  m_PrefabInstance: {fileID: 0}
  m_PrefabAsset: {fileID: 0}
  m_GameObject: {fileID: 1612476492}
  m_Enabled: 1
  serializedVersion: 2
  m_ClearFlags: 1
  m_BackGroundColor: {r: 0.19215687, g: 0.3019608, b: 0.4745098, a: 0}
  m_projectionMatrixMode: 1
  m_GateFitMode: 2
  m_FOVAxisMode: 0
  m_Iso: 200
  m_ShutterSpeed: 0.005
  m_Aperture: 16
  m_FocusDistance: 10
  m_FocalLength: 50
  m_BladeCount: 5
  m_Curvature: {x: 2, y: 11}
  m_BarrelClipping: 0.25
  m_Anamorphism: 0
  m_SensorSize: {x: 36, y: 24}
  m_LensShift: {x: 0, y: 0}
  m_NormalizedViewPortRect:
    serializedVersion: 2
    x: 0
    y: 0
    width: 1
    height: 1
  near clip plane: 0.3
  far clip plane: 1000
  field of view: 60
  orthographic: 0
  orthographic size: 5
  m_Depth: -1
  m_CullingMask:
    serializedVersion: 2
    m_Bits: 4294967295
  m_RenderingPath: -1
  m_TargetTexture: {fileID: 0}
  m_TargetDisplay: 0
  m_TargetEye: 3
  m_HDR: 1
  m_AllowMSAA: 1
  m_AllowDynamicResolution: 0
  m_ForceIntoRT: 0
  m_OcclusionCulling: 1
  m_StereoConvergence: 10
  m_StereoSeparation: 0.022
--- !u!4 &1612476495
Transform:
  m_ObjectHideFlags: 0
  m_CorrespondingSourceObject: {fileID: 0}
  m_PrefabInstance: {fileID: 0}
  m_PrefabAsset: {fileID: 0}
  m_GameObject: {fileID: 1612476492}
  serializedVersion: 2
  m_LocalRotation: {x: 0, y: 0, z: 0, w: 1}
  m_LocalPosition: {x: 0, y: 3, z: -20}
  m_LocalScale: {x: 1, y: 1, z: 1}
  m_ConstrainProportionsScale: 0
  m_Children: []
  m_Father: {fileID: 0}
  m_LocalEulerAnglesHint: {x: 0, y: 0, z: 0}
--- !u!1001 &1663334039
PrefabInstance:
  m_ObjectHideFlags: 0
  serializedVersion: 2
  m_Modification:
    serializedVersion: 3
    m_TransformParent: {fileID: 0}
    m_Modifications:
    - target: {fileID: 3512526509595786538, guid: 88eb4cec0c7324e51bf5e7e1342370e3, type: 3}
      propertyPath: m_Name
      value: WrapPeg (2)
      objectReference: {fileID: 0}
    - target: {fileID: 3512526509595786583, guid: 88eb4cec0c7324e51bf5e7e1342370e3, type: 3}
      propertyPath: m_RootOrder
      value: 5
      objectReference: {fileID: 0}
    - target: {fileID: 3512526509595786583, guid: 88eb4cec0c7324e51bf5e7e1342370e3, type: 3}
      propertyPath: m_LocalPosition.x
      value: 0.68
      objectReference: {fileID: 0}
    - target: {fileID: 3512526509595786583, guid: 88eb4cec0c7324e51bf5e7e1342370e3, type: 3}
      propertyPath: m_LocalPosition.y
      value: 6.41
      objectReference: {fileID: 0}
    - target: {fileID: 3512526509595786583, guid: 88eb4cec0c7324e51bf5e7e1342370e3, type: 3}
      propertyPath: m_LocalPosition.z
      value: -0.5
      objectReference: {fileID: 0}
    - target: {fileID: 3512526509595786583, guid: 88eb4cec0c7324e51bf5e7e1342370e3, type: 3}
      propertyPath: m_LocalRotation.w
      value: 0.7071068
      objectReference: {fileID: 0}
    - target: {fileID: 3512526509595786583, guid: 88eb4cec0c7324e51bf5e7e1342370e3, type: 3}
      propertyPath: m_LocalRotation.x
      value: 0.7071068
      objectReference: {fileID: 0}
    - target: {fileID: 3512526509595786583, guid: 88eb4cec0c7324e51bf5e7e1342370e3, type: 3}
      propertyPath: m_LocalRotation.y
      value: 0
      objectReference: {fileID: 0}
    - target: {fileID: 3512526509595786583, guid: 88eb4cec0c7324e51bf5e7e1342370e3, type: 3}
      propertyPath: m_LocalRotation.z
      value: 0
      objectReference: {fileID: 0}
    - target: {fileID: 3512526509595786583, guid: 88eb4cec0c7324e51bf5e7e1342370e3, type: 3}
      propertyPath: m_LocalEulerAnglesHint.x
      value: 90
      objectReference: {fileID: 0}
    - target: {fileID: 3512526509595786583, guid: 88eb4cec0c7324e51bf5e7e1342370e3, type: 3}
      propertyPath: m_LocalEulerAnglesHint.y
      value: 0
      objectReference: {fileID: 0}
    - target: {fileID: 3512526509595786583, guid: 88eb4cec0c7324e51bf5e7e1342370e3, type: 3}
      propertyPath: m_LocalEulerAnglesHint.z
      value: 0
      objectReference: {fileID: 0}
    m_RemovedComponents: []
    m_RemovedGameObjects: []
    m_AddedGameObjects: []
    m_AddedComponents: []
  m_SourcePrefab: {fileID: 100100000, guid: 88eb4cec0c7324e51bf5e7e1342370e3, type: 3}
--- !u!114 &1663334040 stripped
MonoBehaviour:
  m_CorrespondingSourceObject: {fileID: 3433872735350211203, guid: 88eb4cec0c7324e51bf5e7e1342370e3, type: 3}
  m_PrefabInstance: {fileID: 1663334039}
  m_PrefabAsset: {fileID: 0}
  m_GameObject: {fileID: 0}
  m_Enabled: 1
  m_EditorHideFlags: 0
  m_Script: {fileID: 11500000, guid: 39f0f8f454a2049f3af7bad3dda0481e, type: 3}
  m_Name: 
  m_EditorClassIdentifier: 
--- !u!1 &1686434325
GameObject:
  m_ObjectHideFlags: 0
  m_CorrespondingSourceObject: {fileID: 0}
  m_PrefabInstance: {fileID: 0}
  m_PrefabAsset: {fileID: 0}
  serializedVersion: 6
  m_Component:
  - component: {fileID: 1686434327}
  - component: {fileID: 1686434326}
  m_Layer: 0
  m_Name: BurstCollisionWorld
  m_TagString: Untagged
  m_Icon: {fileID: 0}
  m_NavMeshLayer: 0
  m_StaticEditorFlags: 0
  m_IsActive: 1
--- !u!114 &1686434326
MonoBehaviour:
  m_ObjectHideFlags: 0
  m_CorrespondingSourceObject: {fileID: 0}
  m_PrefabInstance: {fileID: 0}
  m_PrefabAsset: {fileID: 0}
  m_GameObject: {fileID: 1686434325}
  m_Enabled: 1
  m_EditorHideFlags: 0
  m_Script: {fileID: 11500000, guid: f1a161c4294214a4fbcb7e9e94800494, type: 3}
  m_Name: 
  m_EditorClassIdentifier: 
  cellSpans:
    m_AlignBytes: 16
--- !u!4 &1686434327
Transform:
  m_ObjectHideFlags: 0
  m_CorrespondingSourceObject: {fileID: 0}
  m_PrefabInstance: {fileID: 0}
  m_PrefabAsset: {fileID: 0}
  m_GameObject: {fileID: 1686434325}
  serializedVersion: 2
  m_LocalRotation: {x: 0, y: 0, z: 0, w: 1}
  m_LocalPosition: {x: 0, y: 0, z: 0}
  m_LocalScale: {x: 1, y: 1, z: 1}
  m_ConstrainProportionsScale: 0
  m_Children: []
  m_Father: {fileID: 0}
  m_LocalEulerAnglesHint: {x: 0, y: 0, z: 0}
--- !u!1001 &1717570096
PrefabInstance:
  m_ObjectHideFlags: 0
  serializedVersion: 2
  m_Modification:
    serializedVersion: 3
    m_TransformParent: {fileID: 0}
    m_Modifications:
    - target: {fileID: 3512526509595786538, guid: 88eb4cec0c7324e51bf5e7e1342370e3, type: 3}
      propertyPath: m_Name
      value: WrapPeg (6)
      objectReference: {fileID: 0}
    - target: {fileID: 3512526509595786583, guid: 88eb4cec0c7324e51bf5e7e1342370e3, type: 3}
      propertyPath: m_RootOrder
      value: 9
      objectReference: {fileID: 0}
    - target: {fileID: 3512526509595786583, guid: 88eb4cec0c7324e51bf5e7e1342370e3, type: 3}
      propertyPath: m_LocalPosition.x
      value: 6.9300003
      objectReference: {fileID: 0}
    - target: {fileID: 3512526509595786583, guid: 88eb4cec0c7324e51bf5e7e1342370e3, type: 3}
      propertyPath: m_LocalPosition.y
      value: 7
      objectReference: {fileID: 0}
    - target: {fileID: 3512526509595786583, guid: 88eb4cec0c7324e51bf5e7e1342370e3, type: 3}
      propertyPath: m_LocalPosition.z
      value: -0.5
      objectReference: {fileID: 0}
    - target: {fileID: 3512526509595786583, guid: 88eb4cec0c7324e51bf5e7e1342370e3, type: 3}
      propertyPath: m_LocalRotation.w
      value: 0.7071068
      objectReference: {fileID: 0}
    - target: {fileID: 3512526509595786583, guid: 88eb4cec0c7324e51bf5e7e1342370e3, type: 3}
      propertyPath: m_LocalRotation.x
      value: 0.7071068
      objectReference: {fileID: 0}
    - target: {fileID: 3512526509595786583, guid: 88eb4cec0c7324e51bf5e7e1342370e3, type: 3}
      propertyPath: m_LocalRotation.y
      value: 0
      objectReference: {fileID: 0}
    - target: {fileID: 3512526509595786583, guid: 88eb4cec0c7324e51bf5e7e1342370e3, type: 3}
      propertyPath: m_LocalRotation.z
      value: 0
      objectReference: {fileID: 0}
    - target: {fileID: 3512526509595786583, guid: 88eb4cec0c7324e51bf5e7e1342370e3, type: 3}
      propertyPath: m_LocalEulerAnglesHint.x
      value: 90
      objectReference: {fileID: 0}
    - target: {fileID: 3512526509595786583, guid: 88eb4cec0c7324e51bf5e7e1342370e3, type: 3}
      propertyPath: m_LocalEulerAnglesHint.y
      value: 0
      objectReference: {fileID: 0}
    - target: {fileID: 3512526509595786583, guid: 88eb4cec0c7324e51bf5e7e1342370e3, type: 3}
      propertyPath: m_LocalEulerAnglesHint.z
      value: 0
      objectReference: {fileID: 0}
    m_RemovedComponents: []
    m_RemovedGameObjects: []
    m_AddedGameObjects: []
    m_AddedComponents: []
  m_SourcePrefab: {fileID: 100100000, guid: 88eb4cec0c7324e51bf5e7e1342370e3, type: 3}
--- !u!114 &1717570097 stripped
MonoBehaviour:
  m_CorrespondingSourceObject: {fileID: 3433872735350211203, guid: 88eb4cec0c7324e51bf5e7e1342370e3, type: 3}
  m_PrefabInstance: {fileID: 1717570096}
  m_PrefabAsset: {fileID: 0}
  m_GameObject: {fileID: 0}
  m_Enabled: 1
  m_EditorHideFlags: 0
  m_Script: {fileID: 11500000, guid: 39f0f8f454a2049f3af7bad3dda0481e, type: 3}
  m_Name: 
  m_EditorClassIdentifier: 
--- !u!1 &1780856014
GameObject:
  m_ObjectHideFlags: 0
  m_CorrespondingSourceObject: {fileID: 0}
  m_PrefabInstance: {fileID: 0}
  m_PrefabAsset: {fileID: 0}
  serializedVersion: 6
  m_Component:
  - component: {fileID: 1780856015}
  - component: {fileID: 1780856020}
  - component: {fileID: 1780856019}
  - component: {fileID: 1780856018}
  - component: {fileID: 1780856017}
  - component: {fileID: 1780856021}
  - component: {fileID: 1780856022}
  - component: {fileID: 1780856016}
  - component: {fileID: 1780856023}
  m_Layer: 0
  m_Name: Obi Rope
  m_TagString: Untagged
  m_Icon: {fileID: 0}
  m_NavMeshLayer: 0
  m_StaticEditorFlags: 0
  m_IsActive: 1
--- !u!4 &1780856015
Transform:
  m_ObjectHideFlags: 0
  m_CorrespondingSourceObject: {fileID: 0}
  m_PrefabInstance: {fileID: 0}
  m_PrefabAsset: {fileID: 0}
  m_GameObject: {fileID: 1780856014}
  serializedVersion: 2
  m_LocalRotation: {x: 0, y: 0, z: 0.7071068, w: 0.7071068}
  m_LocalPosition: {x: 0, y: -1.5, z: -0.35}
  m_LocalScale: {x: 1, y: 1, z: 1}
  m_ConstrainProportionsScale: 0
  m_Children: []
  m_Father: {fileID: 1882120510}
  m_LocalEulerAnglesHint: {x: 0, y: 0, z: 90}
--- !u!114 &1780856016
MonoBehaviour:
  m_ObjectHideFlags: 0
  m_CorrespondingSourceObject: {fileID: 0}
  m_PrefabInstance: {fileID: 0}
  m_PrefabAsset: {fileID: 0}
  m_GameObject: {fileID: 1780856014}
  m_Enabled: 1
  m_EditorHideFlags: 0
  m_Script: {fileID: 11500000, guid: 18f853588397d4a80a561203ed92fc8a, type: 3}
  m_Name: 
  m_EditorClassIdentifier: 
  uvAnchor: 0
  uvScale: {x: 1, y: 30}
  normalizeV: 1
  thicknessScale: 0.8
--- !u!114 &1780856017
MonoBehaviour:
  m_ObjectHideFlags: 0
  m_CorrespondingSourceObject: {fileID: 0}
  m_PrefabInstance: {fileID: 0}
  m_PrefabAsset: {fileID: 0}
  m_GameObject: {fileID: 1780856014}
  m_Enabled: 1
  m_EditorHideFlags: 0
  m_Script: {fileID: 11500000, guid: 958c969cfb16745f192d4d7bd28b7178, type: 3}
  m_Name: 
  m_EditorClassIdentifier: 
  decimation: 0.5
  smoothing: 0
  twist: 0
--- !u!33 &1780856018
MeshFilter:
  m_ObjectHideFlags: 0
  m_CorrespondingSourceObject: {fileID: 0}
  m_PrefabInstance: {fileID: 0}
  m_PrefabAsset: {fileID: 0}
  m_GameObject: {fileID: 1780856014}
  m_Mesh: {fileID: 542582170}
--- !u!23 &1780856019
MeshRenderer:
  m_ObjectHideFlags: 0
  m_CorrespondingSourceObject: {fileID: 0}
  m_PrefabInstance: {fileID: 0}
  m_PrefabAsset: {fileID: 0}
  m_GameObject: {fileID: 1780856014}
  m_Enabled: 1
  m_CastShadows: 1
  m_ReceiveShadows: 1
  m_DynamicOccludee: 1
  m_StaticShadowCaster: 0
  m_MotionVectors: 1
  m_LightProbeUsage: 1
  m_ReflectionProbeUsage: 1
  m_RayTracingMode: 2
  m_RayTraceProcedural: 0
  m_RenderingLayerMask: 1
  m_RendererPriority: 0
  m_Materials:
  - {fileID: 2100000, guid: 03019be2b7a654429bf322c3ca0c7a0e, type: 2}
  m_StaticBatchInfo:
    firstSubMesh: 0
    subMeshCount: 0
  m_StaticBatchRoot: {fileID: 0}
  m_ProbeAnchor: {fileID: 0}
  m_LightProbeVolumeOverride: {fileID: 0}
  m_ScaleInLightmap: 1
  m_ReceiveGI: 1
  m_PreserveUVs: 0
  m_IgnoreNormalsForChartDetection: 0
  m_ImportantGI: 0
  m_StitchLightmapSeams: 1
  m_SelectedEditorRenderState: 3
  m_MinimumChartSize: 4
  m_AutoUVMaxDistance: 0.5
  m_AutoUVMaxAngle: 89
  m_LightmapParameters: {fileID: 0}
  m_SortingLayerID: 0
  m_SortingLayer: 0
  m_SortingOrder: 0
  m_AdditionalVertexStreams: {fileID: 0}
--- !u!114 &1780856020
MonoBehaviour:
  m_ObjectHideFlags: 0
  m_CorrespondingSourceObject: {fileID: 0}
  m_PrefabInstance: {fileID: 0}
  m_PrefabAsset: {fileID: 0}
  m_GameObject: {fileID: 1780856014}
  m_Enabled: 1
  m_EditorHideFlags: 0
  m_Script: {fileID: 11500000, guid: 61104f33a3f344db9b7e0d0cda41a9fb, type: 3}
  m_Name: 
  m_EditorClassIdentifier: 
  solverIndices: 000000000100000002000000030000000400000005000000060000000700000008000000090000000a0000000b0000000c0000000d0000000e0000000f000000100000001100000012000000130000001400000015000000160000001700000018000000190000001a0000001b0000001c0000001d0000001e0000001f000000200000002100000022000000230000002400000025000000260000002700000028000000290000002a0000002b0000002c0000002d0000002e0000002f000000300000003100000032000000330000003400000035000000360000003700000038000000390000003a0000003b0000003c0000003d0000003e0000003f000000400000004100000042000000430000004400000045000000460000004700000048000000490000004a0000004b0000004c0000004d0000004e0000004f000000500000005100000052000000530000005400000055000000560000005700000058000000590000005a0000005b0000005c0000005d0000005e0000005f000000600000006100000062000000630000006400000065000000660000006700000068000000690000006a0000006b0000006c0000006d0000006e0000006f0000007000000071000000
  m_CollisionMaterial: {fileID: 0}
  m_SurfaceCollisions: 0
  m_SelfCollisions: 0
  restLength_: 78.96037
  elements:
  - particle1: 0
    particle2: 1
    restLength: 0.657959
    constraintForce: 0
    tearResistance: 1
  - particle1: 1
    particle2: 2
    restLength: 0.6274185
    constraintForce: 0
    tearResistance: 1
  - particle1: 2
    particle2: 3
    restLength: 0.80545807
    constraintForce: 0
    tearResistance: 1
  - particle1: 3
    particle2: 4
    restLength: 0.6171951
    constraintForce: 0
    tearResistance: 1
  - particle1: 4
    particle2: 5
    restLength: 0.6890564
    constraintForce: 0
    tearResistance: 1
  - particle1: 5
    particle2: 6
    restLength: 0.7583618
    constraintForce: 0
    tearResistance: 1
  - particle1: 6
    particle2: 7
    restLength: 0.6914139
    constraintForce: 0
    tearResistance: 1
  - particle1: 7
    particle2: 8
    restLength: 0.6603241
    constraintForce: 0
    tearResistance: 1
  - particle1: 8
    particle2: 9
    restLength: 0.6962509
    constraintForce: 0
    tearResistance: 1
  - particle1: 9
    particle2: 10
    restLength: 0.73104095
    constraintForce: 0
    tearResistance: 1
  - particle1: 10
    particle2: 11
    restLength: 0.7430115
    constraintForce: 0
    tearResistance: 1
  - particle1: 11
    particle2: 12
    restLength: 0.65579224
    constraintForce: 0
    tearResistance: 1
  - particle1: 12
    particle2: 13
    restLength: 0.6773987
    constraintForce: 0
    tearResistance: 1
  - particle1: 13
    particle2: 14
    restLength: 0.6984024
    constraintForce: 0
    tearResistance: 1
  - particle1: 14
    particle2: 15
    restLength: 0.7187271
    constraintForce: 0
    tearResistance: 1
  - particle1: 15
    particle2: 16
    restLength: 0.7384491
    constraintForce: 0
    tearResistance: 1
  - particle1: 16
    particle2: 17
    restLength: 0.68582153
    constraintForce: 0
    tearResistance: 1
  - particle1: 17
    particle2: 18
    restLength: 0.6740875
    constraintForce: 0
    tearResistance: 1
  - particle1: 18
    particle2: 19
    restLength: 0.6877136
    constraintForce: 0
    tearResistance: 1
  - particle1: 19
    particle2: 20
    restLength: 0.70095825
    constraintForce: 0
    tearResistance: 1
  - particle1: 20
    particle2: 21
    restLength: 0.7137718
    constraintForce: 0
    tearResistance: 1
  - particle1: 21
    particle2: 22
    restLength: 0.7261467
    constraintForce: 0
    tearResistance: 1
  - particle1: 22
    particle2: 23
    restLength: 0.70257187
    constraintForce: 0
    tearResistance: 1
  - particle1: 23
    particle2: 24
    restLength: 0.6775856
    constraintForce: 0
    tearResistance: 1
  - particle1: 24
    particle2: 25
    restLength: 0.6867447
    constraintForce: 0
    tearResistance: 1
  - particle1: 25
    particle2: 26
    restLength: 0.6955986
    constraintForce: 0
    tearResistance: 1
  - particle1: 26
    particle2: 27
    restLength: 0.70415497
    constraintForce: 0
    tearResistance: 1
  - particle1: 27
    particle2: 28
    restLength: 0.71237564
    constraintForce: 0
    tearResistance: 1
  - particle1: 28
    particle2: 29
    restLength: 0.72029877
    constraintForce: 0
    tearResistance: 1
  - particle1: 29
    particle2: 30
    restLength: 0.69654083
    constraintForce: 0
    tearResistance: 1
  - particle1: 30
    particle2: 31
    restLength: 0.6841812
    constraintForce: 0
    tearResistance: 1
  - particle1: 31
    particle2: 32
    restLength: 0.69026566
    constraintForce: 0
    tearResistance: 1
  - particle1: 32
    particle2: 33
    restLength: 0.6961212
    constraintForce: 0
    tearResistance: 1
  - particle1: 33
    particle2: 34
    restLength: 0.7017021
    constraintForce: 0
    tearResistance: 1
  - particle1: 34
    particle2: 35
    restLength: 0.70703506
    constraintForce: 0
    tearResistance: 1
  - particle1: 35
    particle2: 36
    restLength: 0.7121277
    constraintForce: 0
    tearResistance: 1
  - particle1: 36
    particle2: 37
    restLength: 0.70897675
    constraintForce: 0
    tearResistance: 1
  - particle1: 37
    particle2: 38
    restLength: 0.68764114
    constraintForce: 0
    tearResistance: 1
  - particle1: 38
    particle2: 39
    restLength: 0.69158936
    constraintForce: 0
    tearResistance: 1
  - particle1: 39
    particle2: 40
    restLength: 0.6953201
    constraintForce: 0
    tearResistance: 1
  - particle1: 40
    particle2: 41
    restLength: 0.6988373
    constraintForce: 0
    tearResistance: 1
  - particle1: 41
    particle2: 42
    restLength: 0.7021179
    constraintForce: 0
    tearResistance: 1
  - particle1: 42
    particle2: 43
    restLength: 0.70521927
    constraintForce: 0
    tearResistance: 1
  - particle1: 43
    particle2: 44
    restLength: 0.7080574
    constraintForce: 0
    tearResistance: 1
  - particle1: 44
    particle2: 45
    restLength: 0.70124435
    constraintForce: 0
    tearResistance: 1
  - particle1: 45
    particle2: 46
    restLength: 0.6936035
    constraintForce: 0
    tearResistance: 1
  - particle1: 46
    particle2: 47
    restLength: 0.6956978
    constraintForce: 0
    tearResistance: 1
  - particle1: 47
    particle2: 48
    restLength: 0.6975975
    constraintForce: 0
    tearResistance: 1
  - particle1: 48
    particle2: 49
    restLength: 0.6992912
    constraintForce: 0
    tearResistance: 1
  - particle1: 49
    particle2: 50
    restLength: 0.7007866
    constraintForce: 0
    tearResistance: 1
  - particle1: 50
    particle2: 51
    restLength: 0.7020836
    constraintForce: 0
    tearResistance: 1
  - particle1: 51
    particle2: 52
    restLength: 0.7031746
    constraintForce: 0
    tearResistance: 1
  - particle1: 52
    particle2: 53
    restLength: 0.70077133
    constraintForce: 0
    tearResistance: 1
  - particle1: 53
    particle2: 54
    restLength: 0.6984062
    constraintForce: 0
    tearResistance: 1
  - particle1: 54
    particle2: 55
    restLength: 0.6988945
    constraintForce: 0
    tearResistance: 1
  - particle1: 55
    particle2: 56
    restLength: 0.6991768
    constraintForce: 0
    tearResistance: 1
  - particle1: 56
    particle2: 57
    restLength: 0.6992874
    constraintForce: 0
    tearResistance: 1
  - particle1: 57
    particle2: 58
    restLength: 0.6991844
    constraintForce: 0
    tearResistance: 1
  - particle1: 58
    particle2: 59
    restLength: 0.6988869
    constraintForce: 0
    tearResistance: 1
  - particle1: 59
    particle2: 60
    restLength: 0.6983986
    constraintForce: 0
    tearResistance: 1
  - particle1: 60
    particle2: 61
    restLength: 0.70077133
    constraintForce: 0
    tearResistance: 1
  - particle1: 61
    particle2: 62
    restLength: 0.7031784
    constraintForce: 0
    tearResistance: 1
  - particle1: 62
    particle2: 63
    restLength: 0.7020798
    constraintForce: 0
    tearResistance: 1
  - particle1: 63
    particle2: 64
    restLength: 0.7007942
    constraintForce: 0
    tearResistance: 1
  - particle1: 64
    particle2: 65
    restLength: 0.6992912
    constraintForce: 0
    tearResistance: 1
  - particle1: 65
    particle2: 66
    restLength: 0.6975956
    constraintForce: 0
    tearResistance: 1
  - particle1: 66
    particle2: 67
    restLength: 0.6956997
    constraintForce: 0
    tearResistance: 1
  - particle1: 67
    particle2: 68
    restLength: 0.6936035
    constraintForce: 0
    tearResistance: 1
  - particle1: 68
    particle2: 69
    restLength: 0.70124245
    constraintForce: 0
    tearResistance: 1
  - particle1: 69
    particle2: 70
    restLength: 0.7080612
    constraintForce: 0
    tearResistance: 1
  - particle1: 70
    particle2: 71
    restLength: 0.7052078
    constraintForce: 0
    tearResistance: 1
  - particle1: 71
    particle2: 72
    restLength: 0.70212936
    constraintForce: 0
    tearResistance: 1
  - particle1: 72
    particle2: 73
    restLength: 0.69883347
    constraintForce: 0
    tearResistance: 1
  - particle1: 73
    particle2: 74
    restLength: 0.6953201
    constraintForce: 0
    tearResistance: 1
  - particle1: 74
    particle2: 75
    restLength: 0.69158363
    constraintForce: 0
    tearResistance: 1
  - particle1: 75
    particle2: 76
    restLength: 0.68763924
    constraintForce: 0
    tearResistance: 1
  - particle1: 76
    particle2: 77
    restLength: 0.7089863
    constraintForce: 0
    tearResistance: 1
  - particle1: 77
    particle2: 78
    restLength: 0.71212196
    constraintForce: 0
    tearResistance: 1
  - particle1: 78
    particle2: 79
    restLength: 0.7070408
    constraintForce: 0
    tearResistance: 1
  - particle1: 79
    particle2: 80
    restLength: 0.7016964
    constraintForce: 0
    tearResistance: 1
  - particle1: 80
    particle2: 81
    restLength: 0.6961155
    constraintForce: 0
    tearResistance: 1
  - particle1: 81
    particle2: 82
    restLength: 0.6902695
    constraintForce: 0
    tearResistance: 1
  - particle1: 82
    particle2: 83
    restLength: 0.6841831
    constraintForce: 0
    tearResistance: 1
  - particle1: 83
    particle2: 84
    restLength: 0.6965389
    constraintForce: 0
    tearResistance: 1
  - particle1: 84
    particle2: 85
    restLength: 0.7203064
    constraintForce: 0
    tearResistance: 1
  - particle1: 85
    particle2: 86
    restLength: 0.71237946
    constraintForce: 0
    tearResistance: 1
  - particle1: 86
    particle2: 87
    restLength: 0.70414543
    constraintForce: 0
    tearResistance: 1
  - particle1: 87
    particle2: 88
    restLength: 0.6955986
    constraintForce: 0
    tearResistance: 1
  - particle1: 88
    particle2: 89
    restLength: 0.6867504
    constraintForce: 0
    tearResistance: 1
  - particle1: 89
    particle2: 90
    restLength: 0.67757607
    constraintForce: 0
    tearResistance: 1
  - particle1: 90
    particle2: 91
    restLength: 0.7025757
    constraintForce: 0
    tearResistance: 1
  - particle1: 91
    particle2: 92
    restLength: 0.72615623
    constraintForce: 0
    tearResistance: 1
  - particle1: 92
    particle2: 93
    restLength: 0.7137613
    constraintForce: 0
    tearResistance: 1
  - particle1: 93
    particle2: 94
    restLength: 0.70095825
    constraintForce: 0
    tearResistance: 1
  - particle1: 94
    particle2: 95
    restLength: 0.6877241
    constraintForce: 0
    tearResistance: 1
  - particle1: 95
    particle2: 96
    restLength: 0.67408085
    constraintForce: 0
    tearResistance: 1
  - particle1: 96
    particle2: 97
    restLength: 0.68582535
    constraintForce: 0
    tearResistance: 1
  - particle1: 97
    particle2: 98
    restLength: 0.73844147
    constraintForce: 0
    tearResistance: 1
  - particle1: 98
    particle2: 99
    restLength: 0.71873474
    constraintForce: 0
    tearResistance: 1
  - particle1: 99
    particle2: 100
    restLength: 0.69838905
    constraintForce: 0
    tearResistance: 1
  - particle1: 100
    particle2: 101
    restLength: 0.6774101
    constraintForce: 0
    tearResistance: 1
  - particle1: 101
    particle2: 102
    restLength: 0.65579367
    constraintForce: 0
    tearResistance: 1
  - particle1: 102
    particle2: 103
    restLength: 0.74301386
    constraintForce: 0
    tearResistance: 1
  - particle1: 103
    particle2: 104
    restLength: 0.73103285
    constraintForce: 0
    tearResistance: 1
  - particle1: 104
    particle2: 105
    restLength: 0.69625187
    constraintForce: 0
    tearResistance: 1
  - particle1: 105
    particle2: 106
    restLength: 0.6603303
    constraintForce: 0
    tearResistance: 1
  - particle1: 106
    particle2: 107
    restLength: 0.6914048
    constraintForce: 0
    tearResistance: 1
  - particle1: 107
    particle2: 108
    restLength: 0.7583585
    constraintForce: 0
    tearResistance: 1
  - particle1: 108
    particle2: 109
    restLength: 0.68906343
    constraintForce: 0
    tearResistance: 1
  - particle1: 109
    particle2: 110
    restLength: 0.61720514
    constraintForce: 0
    tearResistance: 1
  - particle1: 110
    particle2: 111
    restLength: 0.80545086
    constraintForce: 0
    tearResistance: 1
  - particle1: 111
    particle2: 112
    restLength: 0.6274201
    constraintForce: 0
    tearResistance: 1
  - particle1: 112
    particle2: 113
    restLength: 0.657958
    constraintForce: 0
    tearResistance: 1
  m_RopeBlueprint: {fileID: 11400000, guid: 4d31372b30ca34527b534f09a803ab15, type: 2}
  tearingEnabled: 0
  tearResistanceMultiplier: 1000
  tearRate: 1
  _distanceConstraintsEnabled: 1
  _stretchingScale: 1
  _stretchCompliance: 0
  _maxCompression: 0
  _bendConstraintsEnabled: 1
  _bendCompliance: 0.01
  _maxBending: 0.025
  _plasticYield: 0
  _plasticCreep: 0
--- !u!114 &1780856021
MonoBehaviour:
  m_ObjectHideFlags: 0
  m_CorrespondingSourceObject: {fileID: 0}
  m_PrefabInstance: {fileID: 0}
  m_PrefabAsset: {fileID: 0}
  m_GameObject: {fileID: 1780856014}
  m_Enabled: 1
  m_EditorHideFlags: 0
  m_Script: {fileID: 11500000, guid: 4d03c9194b7ab4aaba4dfa5afec22c69, type: 3}
  m_Name: 
  m_EditorClassIdentifier: 
  m_Actor: {fileID: 1780856020}
  m_Target: {fileID: 862377252}
  m_ParticleGroup: {fileID: 870036912147276740, guid: 4d31372b30ca34527b534f09a803ab15, type: 2}
  m_AttachmentType: 1
  m_ConstrainOrientation: 0
  m_Compliance: 0
  m_BreakThreshold: Infinity
--- !u!114 &1780856022
MonoBehaviour:
  m_ObjectHideFlags: 0
  m_CorrespondingSourceObject: {fileID: 0}
  m_PrefabInstance: {fileID: 0}
  m_PrefabAsset: {fileID: 0}
  m_GameObject: {fileID: 1780856014}
  m_Enabled: 1
  m_EditorHideFlags: 0
  m_Script: {fileID: 11500000, guid: 4d03c9194b7ab4aaba4dfa5afec22c69, type: 3}
  m_Name: 
  m_EditorClassIdentifier: 
  m_Actor: {fileID: 1780856020}
  m_Target: {fileID: 599321989}
  m_ParticleGroup: {fileID: -5578146735436999353, guid: 4d31372b30ca34527b534f09a803ab15, type: 2}
  m_AttachmentType: 1
  m_ConstrainOrientation: 0
  m_Compliance: 0
  m_BreakThreshold: Infinity
--- !u!114 &1780856023
MonoBehaviour:
  m_ObjectHideFlags: 0
  m_CorrespondingSourceObject: {fileID: 0}
  m_PrefabInstance: {fileID: 0}
  m_PrefabAsset: {fileID: 0}
  m_GameObject: {fileID: 1780856014}
  m_Enabled: 1
  m_EditorHideFlags: 0
  m_Script: {fileID: 11500000, guid: 51f5e34b2316b45c6bdf971b375b5f2e, type: 3}
  m_Name: 
  m_EditorClassIdentifier: 
  minTension: 0
  maxTension: 0.05
  normalColor: {r: 0.22921856, g: 0.9528302, b: 0.40241542, a: 1}
  tensionColor: {r: 1, g: 0, b: 0, a: 1}
  tenser: {fileID: 599321991}
  tenserThreshold: -13
  tenserMax: 1
--- !u!1 &1882120507
GameObject:
  m_ObjectHideFlags: 0
  m_CorrespondingSourceObject: {fileID: 0}
  m_PrefabInstance: {fileID: 0}
  m_PrefabAsset: {fileID: 0}
  serializedVersion: 6
  m_Component:
  - component: {fileID: 1882120510}
  - component: {fileID: 1882120509}
  - component: {fileID: 1882120508}
  - component: {fileID: 1882120511}
  m_Layer: 0
  m_Name: Obi Solver
  m_TagString: Untagged
  m_Icon: {fileID: 0}
  m_NavMeshLayer: 0
  m_StaticEditorFlags: 0
  m_IsActive: 1
--- !u!114 &1882120508
MonoBehaviour:
  m_ObjectHideFlags: 0
  m_CorrespondingSourceObject: {fileID: 0}
  m_PrefabInstance: {fileID: 0}
  m_PrefabAsset: {fileID: 0}
  m_GameObject: {fileID: 1882120507}
  m_Enabled: 1
  m_EditorHideFlags: 0
  m_Script: {fileID: 11500000, guid: 1d9704d540ac448439a425526f6b2986, type: 3}
  m_Name: 
  m_EditorClassIdentifier: 
  solvers:
  - {fileID: 1882120509}
  substeps: 6
--- !u!114 &1882120509
MonoBehaviour:
  m_ObjectHideFlags: 0
  m_CorrespondingSourceObject: {fileID: 0}
  m_PrefabInstance: {fileID: 0}
  m_PrefabAsset: {fileID: 0}
  m_GameObject: {fileID: 1882120507}
  m_Enabled: 1
  m_EditorHideFlags: 0
  m_Script: {fileID: 11500000, guid: 9d174fab52f0c4b8399f25d5c3ea524c, type: 3}
  m_Name: 
  m_EditorClassIdentifier: 
  simulateWhenInvisible: 1
  m_Backend: 1
  parameters:
    mode: 1
    interpolation: 0
    gravity: {x: 0, y: 0, z: 0}
    damping: 0.1
    maxAnisotropy: 3
    sleepThreshold: 0.0001
    collisionMargin: 0.05
    maxDepenetration: 50
    continuousCollisionDetection: 1
    shockPropagation: 0
    surfaceCollisionIterations: 16
    surfaceCollisionTolerance: 0.001
  gravity: {x: 0, y: -9.81, z: 0}
  gravitySpace: 1
  worldLinearInertiaScale: 0
  worldAngularInertiaScale: 0
  distanceConstraintParameters:
    evaluationOrder: 0
    iterations: 4
    SORFactor: 1
    enabled: 1
  bendingConstraintParameters:
    evaluationOrder: 1
    iterations: 1
    SORFactor: 1
    enabled: 1
  particleCollisionConstraintParameters:
    evaluationOrder: 0
    iterations: 2
    SORFactor: 1
    enabled: 0
  particleFrictionConstraintParameters:
    evaluationOrder: 1
    iterations: 1
    SORFactor: 1
    enabled: 0
  collisionConstraintParameters:
    evaluationOrder: 0
    iterations: 4
    SORFactor: 1
    enabled: 1
  frictionConstraintParameters:
    evaluationOrder: 1
    iterations: 1
    SORFactor: 1
    enabled: 0
  skinConstraintParameters:
    evaluationOrder: 0
    iterations: 1
    SORFactor: 1
    enabled: 0
  volumeConstraintParameters:
    evaluationOrder: 1
    iterations: 2
    SORFactor: 1
    enabled: 0
  shapeMatchingConstraintParameters:
    evaluationOrder: 1
    iterations: 3
    SORFactor: 1
    enabled: 0
  tetherConstraintParameters:
    evaluationOrder: 1
    iterations: 1
    SORFactor: 1
    enabled: 0
  pinConstraintParameters:
    evaluationOrder: 1
    iterations: 2
    SORFactor: 1
    enabled: 1
  stitchConstraintParameters:
    evaluationOrder: 1
    iterations: 2
    SORFactor: 1
    enabled: 0
  densityConstraintParameters:
    evaluationOrder: 1
    iterations: 2
    SORFactor: 1
    enabled: 0
  stretchShearConstraintParameters:
    evaluationOrder: 0
    iterations: 3
    SORFactor: 1
    enabled: 0
  bendTwistConstraintParameters:
    evaluationOrder: 0
    iterations: 3
    SORFactor: 1
    enabled: 0
  chainConstraintParameters:
    evaluationOrder: 0
    iterations: 3
    SORFactor: 1
    enabled: 0
--- !u!4 &1882120510
Transform:
  m_ObjectHideFlags: 0
  m_CorrespondingSourceObject: {fileID: 0}
  m_PrefabInstance: {fileID: 0}
  m_PrefabAsset: {fileID: 0}
  m_GameObject: {fileID: 1882120507}
  serializedVersion: 2
  m_LocalRotation: {x: 0, y: 0, z: 0, w: 1}
  m_LocalPosition: {x: 0, y: 0, z: 0}
  m_LocalScale: {x: 1, y: 1, z: 1}
  m_ConstrainProportionsScale: 0
  m_Children:
  - {fileID: 1780856015}
  m_Father: {fileID: 0}
  m_LocalEulerAnglesHint: {x: 0, y: 0, z: 0}
--- !u!114 &1882120511
MonoBehaviour:
  m_ObjectHideFlags: 0
  m_CorrespondingSourceObject: {fileID: 0}
  m_PrefabInstance: {fileID: 0}
  m_PrefabAsset: {fileID: 0}
  m_GameObject: {fileID: 1882120507}
  m_Enabled: 1
  m_EditorHideFlags: 0
  m_Script: {fileID: 11500000, guid: 92b1832c67f564e9fa43a180598111e8, type: 3}
  m_Name: 
  m_EditorClassIdentifier: 
  wrappables:
  - {fileID: 1015286418}
  - {fileID: 1595626175}
  - {fileID: 1663334040}
  - {fileID: 175885770}
  - {fileID: 1430085411}
  - {fileID: 334666149}
  - {fileID: 1717570097}
  onFinish:
    m_PersistentCalls:
      m_Calls:
      - m_Target: {fileID: 1406884018}
        m_TargetAssemblyTypeName: 
        m_MethodName: SetActive
        m_Mode: 6
        m_Arguments:
          m_ObjectArgument: {fileID: 0}
          m_ObjectArgumentAssemblyTypeName: UnityEngine.Object, UnityEngine
          m_IntArgument: 0
          m_FloatArgument: 0
          m_StringArgument: 
          m_BoolArgument: 1
        m_CallState: 2
--- !u!1 &1919818295
GameObject:
  m_ObjectHideFlags: 0
  m_CorrespondingSourceObject: {fileID: 0}
  m_PrefabInstance: {fileID: 0}
  m_PrefabAsset: {fileID: 0}
  serializedVersion: 6
  m_Component:
  - component: {fileID: 1919818299}
  - component: {fileID: 1919818298}
  - component: {fileID: 1919818297}
  m_Layer: 0
  m_Name: Plane
  m_TagString: Untagged
  m_Icon: {fileID: 0}
  m_NavMeshLayer: 0
  m_StaticEditorFlags: 0
  m_IsActive: 1
--- !u!23 &1919818297
MeshRenderer:
  m_ObjectHideFlags: 0
  m_CorrespondingSourceObject: {fileID: 0}
  m_PrefabInstance: {fileID: 0}
  m_PrefabAsset: {fileID: 0}
  m_GameObject: {fileID: 1919818295}
  m_Enabled: 1
  m_CastShadows: 1
  m_ReceiveShadows: 1
  m_DynamicOccludee: 1
  m_StaticShadowCaster: 0
  m_MotionVectors: 1
  m_LightProbeUsage: 1
  m_ReflectionProbeUsage: 1
  m_RayTracingMode: 2
  m_RayTraceProcedural: 0
  m_RenderingLayerMask: 1
  m_RendererPriority: 0
  m_Materials:
  - {fileID: 2100000, guid: 359ef2e4b09204eeab112e419c308068, type: 2}
  m_StaticBatchInfo:
    firstSubMesh: 0
    subMeshCount: 0
  m_StaticBatchRoot: {fileID: 0}
  m_ProbeAnchor: {fileID: 0}
  m_LightProbeVolumeOverride: {fileID: 0}
  m_ScaleInLightmap: 1
  m_ReceiveGI: 1
  m_PreserveUVs: 0
  m_IgnoreNormalsForChartDetection: 0
  m_ImportantGI: 0
  m_StitchLightmapSeams: 1
  m_SelectedEditorRenderState: 3
  m_MinimumChartSize: 4
  m_AutoUVMaxDistance: 0.5
  m_AutoUVMaxAngle: 89
  m_LightmapParameters: {fileID: 0}
  m_SortingLayerID: 0
  m_SortingLayer: 0
  m_SortingOrder: 0
  m_AdditionalVertexStreams: {fileID: 0}
--- !u!33 &1919818298
MeshFilter:
  m_ObjectHideFlags: 0
  m_CorrespondingSourceObject: {fileID: 0}
  m_PrefabInstance: {fileID: 0}
  m_PrefabAsset: {fileID: 0}
  m_GameObject: {fileID: 1919818295}
  m_Mesh: {fileID: 10209, guid: 0000000000000000e000000000000000, type: 0}
--- !u!4 &1919818299
Transform:
  m_ObjectHideFlags: 0
  m_CorrespondingSourceObject: {fileID: 0}
  m_PrefabInstance: {fileID: 0}
  m_PrefabAsset: {fileID: 0}
  m_GameObject: {fileID: 1919818295}
  serializedVersion: 2
  m_LocalRotation: {x: -0.7071068, y: 0, z: 0, w: 0.7071068}
  m_LocalPosition: {x: 0, y: 0, z: 0}
  m_LocalScale: {x: 5, y: 5, z: 5}
  m_ConstrainProportionsScale: 0
  m_Children: []
  m_Father: {fileID: 0}
  m_LocalEulerAnglesHint: {x: -90, y: 0, z: 0}
--- !u!1660057539 &9223372036854775807
SceneRoots:
  m_ObjectHideFlags: 0
  m_Roots:
  - {fileID: 1612476495}
  - {fileID: 615688260}
  - {fileID: 1919818299}
  - {fileID: 1015286417}
  - {fileID: 1595626174}
  - {fileID: 1663334039}
  - {fileID: 175885769}
  - {fileID: 1430085410}
  - {fileID: 334666148}
  - {fileID: 1717570096}
  - {fileID: 862377252}
  - {fileID: 1276486558}
  - {fileID: 1882120510}
  - {fileID: 599321989}
  - {fileID: 876719296}
  - {fileID: 1686434327}
  - {fileID: 1264929930}
